MCDF/MCDF_ALL/MCDF_tb1.vcd
$date
	Wed Dec  7 20:12:10 2022
$end
$version
	Icarus Verilog
$end
$timescale
	100ps
$end
$scope module MCDF_tb1 $end
$var wire 1 ! fmt_start $end
$var wire 1 " fmt_req $end
$var wire 6 # fmt_length [5:0] $end
$var wire 1 $ fmt_end $end
$var wire 32 % fmt_data [31:0] $end
$var wire 2 & fmt_child [1:0] $end
$var wire 32 ' cmd_data_o [31:0] $end
$var wire 1 ( ch2_ready $end
$var wire 1 ) ch1_ready $end
$var wire 1 * ch0_ready $end
$var reg 32 + ch0_data [31:0] $end
$var reg 1 , ch0_valid $end
$var reg 32 - ch1_data [31:0] $end
$var reg 1 . ch1_valid $end
$var reg 32 / ch2_data [31:0] $end
$var reg 1 0 ch2_valid $end
$var reg 1 1 clk $end
$var reg 2 2 cmd [1:0] $end
$var reg 6 3 cmd_addr [5:0] $end
$var reg 32 4 cmd_data_i [31:0] $end
$var reg 1 5 fmt_grant $end
$var reg 1 6 rst_n $end
$scope module MCDF_inst0 $end
$var wire 32 7 ch0_data [31:0] $end
$var wire 1 , ch0_valid $end
$var wire 32 8 ch1_data [31:0] $end
$var wire 1 . ch1_valid $end
$var wire 32 9 ch2_data [31:0] $end
$var wire 1 0 ch2_valid $end
$var wire 1 1 clk $end
$var wire 2 : cmd [1:0] $end
$var wire 6 ; cmd_addr [5:0] $end
$var wire 32 < cmd_data_i [31:0] $end
$var wire 1 5 fmt_grant $end
$var wire 1 6 rst_n $end
$var wire 1 = slv2_val $end
$var wire 1 > slv2_req $end
$var wire 2 ? slv2_prio [1:0] $end
$var wire 3 @ slv2_pkglen [2:0] $end
$var wire 6 A slv2_margin [5:0] $end
$var wire 1 B slv2_end $end
$var wire 1 C slv2_en $end
$var wire 32 D slv2_data [31:0] $end
$var wire 1 E slv1_val $end
$var wire 1 F slv1_req $end
$var wire 2 G slv1_prio [1:0] $end
$var wire 3 H slv1_pkglen [2:0] $end
$var wire 6 I slv1_margin [5:0] $end
$var wire 1 J slv1_end $end
$var wire 1 K slv1_en $end
$var wire 32 L slv1_data [31:0] $end
$var wire 1 M slv0_val $end
$var wire 1 N slv0_req $end
$var wire 2 O slv0_prio [1:0] $end
$var wire 3 P slv0_pkglen [2:0] $end
$var wire 6 Q slv0_margin [5:0] $end
$var wire 1 R slv0_end $end
$var wire 1 S slv0_en $end
$var wire 32 T slv0_data [31:0] $end
$var wire 1 ! fmt_start $end
$var wire 1 " fmt_req $end
$var wire 6 U fmt_length [5:0] $end
$var wire 1 $ fmt_end $end
$var wire 32 V fmt_data [31:0] $end
$var wire 2 W fmt_child [1:0] $end
$var wire 1 X f2a_id_req $end
$var wire 1 Y f2a_ack $end
$var wire 32 Z cmd_data_o [31:0] $end
$var wire 1 ( ch2_ready $end
$var wire 1 ) ch1_ready $end
$var wire 1 * ch0_ready $end
$var wire 1 [ a2s2_ack $end
$var wire 1 \ a2s1_ack $end
$var wire 1 ] a2s0_ack $end
$var wire 1 ^ a2f_val $end
$var wire 3 _ a2f_pkglen_sel [2:0] $end
$var wire 2 ` a2f_id [1:0] $end
$var wire 1 a a2f_end $end
$var wire 32 b a2f_data [31:0] $end
$scope module arb0 $end
$var wire 1 1 clk_i $end
$var wire 1 6 rstn_i $end
$var wire 3 c slvx_req [2:0] $end
$var wire 1 = slv2_val_i $end
$var wire 1 > slv2_req_i $end
$var wire 2 d slv2_prio_i [1:0] $end
$var wire 3 e slv2_pkglen_i [2:0] $end
$var wire 1 B slv2_end_i $end
$var wire 32 f slv2_data_i [31:0] $end
$var wire 1 E slv1_val_i $end
$var wire 1 F slv1_req_i $end
$var wire 2 g slv1_prio_i [1:0] $end
$var wire 3 h slv1_pkglen_i [2:0] $end
$var wire 1 J slv1_end_i $end
$var wire 32 i slv1_data_i [31:0] $end
$var wire 1 M slv0_val_i $end
$var wire 1 N slv0_req_i $end
$var wire 2 j slv0_prio_i [1:0] $end
$var wire 3 k slv0_pkglen_i [2:0] $end
$var wire 1 R slv0_end_i $end
$var wire 32 l slv0_data_i [31:0] $end
$var wire 1 X f2a_id_req_i $end
$var wire 1 Y f2a_ack_i $end
$var wire 4 m ch2_prio_syn [3:0] $end
$var wire 4 n ch1_prio_syn [3:0] $end
$var wire 4 o ch0_prio_syn [3:0] $end
$var reg 32 p a2f_data_o [31:0] $end
$var reg 1 a a2f_end_o $end
$var reg 2 q a2f_id_o [1:0] $end
$var reg 3 r a2f_pkglen_sel_o [2:0] $end
$var reg 1 ^ a2f_val_o $end
$var reg 1 ] a2s0_ack_o $end
$var reg 1 \ a2s1_ack_o $end
$var reg 1 [ a2s2_ack_o $end
$var reg 6 s channel_prio [5:0] $end
$upscope $end
$scope module cr0 $end
$var wire 1 1 clk_i $end
$var wire 6 t cmd_addr_i [5:0] $end
$var wire 32 u cmd_data_i [31:0] $end
$var wire 2 v cmd_i [1:0] $end
$var wire 1 6 rstn_i $end
$var wire 2 w slv2_prio_o [1:0] $end
$var wire 3 x slv2_pkglen_o [2:0] $end
$var wire 6 y slv2_margin_i [5:0] $end
$var wire 1 C slv2_en_o $end
$var wire 2 z slv1_prio_o [1:0] $end
$var wire 3 { slv1_pkglen_o [2:0] $end
$var wire 6 | slv1_margin_i [5:0] $end
$var wire 1 K slv1_en_o $end
$var wire 2 } slv0_prio_o [1:0] $end
$var wire 3 ~ slv0_pkglen_o [2:0] $end
$var wire 6 !" slv0_margin_i [5:0] $end
$var wire 1 S slv0_en_o $end
$var reg 32 "" cmd_data_o [31:0] $end
$var integer 32 #" i [31:0] $end
$upscope $end
$scope module fm0 $end
$var wire 32 $" a2f_data_i [31:0] $end
$var wire 1 a a2f_end_i $end
$var wire 2 %" a2f_id_i [1:0] $end
$var wire 3 &" a2f_pkglen_sel_i [2:0] $end
$var wire 1 ^ a2f_val_i $end
$var wire 1 1 clk_i $end
$var wire 1 Y f2a_ack_o $end
$var wire 2 '" fmt_child_o [1:0] $end
$var wire 32 (" fmt_data_o [31:0] $end
$var wire 1 $ fmt_end_o $end
$var wire 1 5 fmt_grant_i $end
$var wire 1 " fmt_req_o $end
$var wire 1 6 rstn_i $end
$var reg 1 )" fmt_end_d1 $end
$var reg 1 X fmt_id_req_o $end
$var reg 1 *" fmt_id_req_o_d1 $end
$var reg 6 +" fmt_length_o [5:0] $end
$var reg 1 ! fmt_start_o $end
$upscope $end
$scope module slave0 $end
$var wire 1 ] a2sx_ack_i $end
$var wire 32 ," chx_data_i [31:0] $end
$var wire 1 , chx_valid_i $end
$var wire 1 1 clk_i $end
$var wire 1 -" rd_en $end
$var wire 1 ." rst_n $end
$var wire 1 6 rstn_i $end
$var wire 1 S slvx_en_i $end
$var wire 3 /" slvx_pkglen_i [2:0] $end
$var wire 1 0" wr_en $end
$var wire 1 1" val_i $end
$var wire 1 N slvx_req_o $end
$var wire 32 2" slvx_data_o [31:0] $end
$var wire 6 3" pkglen [5:0] $end
$var wire 6 4" margin_o [5:0] $end
$var wire 1 * chx_ready_o $end
$var reg 1 R slvx_end_o $end
$var reg 1 M slvx_val_o $end
$var integer 32 5" i [31:0] $end
$scope module FIFO1 $end
$var wire 1 1 clk $end
$var wire 32 6" data_in [31:0] $end
$var wire 1 -" rd_en $end
$var wire 1 ." rst_n $end
$var wire 1 0" wr_en $end
$var wire 6 7" wr_ptr_true [5:0] $end
$var wire 1 8" wr_ptr_msb $end
$var wire 6 9" rd_ptr_true [5:0] $end
$var wire 1 :" rd_ptr_msb $end
$var wire 1 ;" full $end
$var wire 1 <" empty $end
$var wire 6 =" FIFO_margin_o [5:0] $end
$var reg 32 >" data_out [31:0] $end
$var reg 7 ?" rd_ptr [6:0] $end
$var reg 7 @" wr_ptr [6:0] $end
$upscope $end
$upscope $end
$scope module slave1 $end
$var wire 1 \ a2sx_ack_i $end
$var wire 32 A" chx_data_i [31:0] $end
$var wire 1 . chx_valid_i $end
$var wire 1 1 clk_i $end
$var wire 1 B" rd_en $end
$var wire 1 C" rst_n $end
$var wire 1 6 rstn_i $end
$var wire 1 K slvx_en_i $end
$var wire 3 D" slvx_pkglen_i [2:0] $end
$var wire 1 E" wr_en $end
$var wire 1 F" val_i $end
$var wire 1 F slvx_req_o $end
$var wire 32 G" slvx_data_o [31:0] $end
$var wire 6 H" pkglen [5:0] $end
$var wire 6 I" margin_o [5:0] $end
$var wire 1 ) chx_ready_o $end
$var reg 1 J slvx_end_o $end
$var reg 1 E slvx_val_o $end
$var integer 32 J" i [31:0] $end
$scope module FIFO1 $end
$var wire 1 1 clk $end
$var wire 32 K" data_in [31:0] $end
$var wire 1 B" rd_en $end
$var wire 1 C" rst_n $end
$var wire 1 E" wr_en $end
$var wire 6 L" wr_ptr_true [5:0] $end
$var wire 1 M" wr_ptr_msb $end
$var wire 6 N" rd_ptr_true [5:0] $end
$var wire 1 O" rd_ptr_msb $end
$var wire 1 P" full $end
$var wire 1 Q" empty $end
$var wire 6 R" FIFO_margin_o [5:0] $end
$var reg 32 S" data_out [31:0] $end
$var reg 7 T" rd_ptr [6:0] $end
$var reg 7 U" wr_ptr [6:0] $end
$upscope $end
$upscope $end
$scope module slave2 $end
$var wire 1 [ a2sx_ack_i $end
$var wire 32 V" chx_data_i [31:0] $end
$var wire 1 0 chx_valid_i $end
$var wire 1 1 clk_i $end
$var wire 1 W" rd_en $end
$var wire 1 X" rst_n $end
$var wire 1 6 rstn_i $end
$var wire 1 C slvx_en_i $end
$var wire 3 Y" slvx_pkglen_i [2:0] $end
$var wire 1 Z" wr_en $end
$var wire 1 [" val_i $end
$var wire 1 > slvx_req_o $end
$var wire 32 \" slvx_data_o [31:0] $end
$var wire 6 ]" pkglen [5:0] $end
$var wire 6 ^" margin_o [5:0] $end
$var wire 1 ( chx_ready_o $end
$var reg 1 B slvx_end_o $end
$var reg 1 = slvx_val_o $end
$var integer 32 _" i [31:0] $end
$scope module FIFO1 $end
$var wire 1 1 clk $end
$var wire 32 `" data_in [31:0] $end
$var wire 1 W" rd_en $end
$var wire 1 X" rst_n $end
$var wire 1 Z" wr_en $end
$var wire 6 a" wr_ptr_true [5:0] $end
$var wire 1 b" wr_ptr_msb $end
$var wire 6 c" rd_ptr_true [5:0] $end
$var wire 1 d" rd_ptr_msb $end
$var wire 1 e" full $end
$var wire 1 f" empty $end
$var wire 6 g" FIFO_margin_o [5:0] $end
$var reg 32 h" data_out [31:0] $end
$var reg 7 i" rd_ptr [6:0] $end
$var reg 7 j" wr_ptr [6:0] $end
$upscope $end
$upscope $end
$upscope $end
$upscope $end
$enddefinitions $end
#0
$dumpvars
b0 j"
b0 i"
b0 h"
b111111 g"
1f"
0e"
0d"
b0 c"
0b"
b0 a"
b0 `"
b0 _"
b111111 ^"
b100 ]"
b0 \"
0["
0Z"
b0 Y"
0X"
0W"
b0 V"
b0 U"
b0 T"
b0 S"
b111111 R"
1Q"
0P"
0O"
b0 N"
0M"
b0 L"
b0 K"
b0 J"
b111111 I"
b100 H"
b0 G"
0F"
0E"
b0 D"
0C"
0B"
b0 A"
b0 @"
b0 ?"
b0 >"
b111111 ="
1<"
0;"
0:"
b0 9"
08"
b0 7"
b0 6"
b0 5"
b111111 4"
b100 3"
b0 2"
01"
00"
b0 /"
0."
0-"
b0 ,"
b100 +"
0*"
0)"
b0 ("
b11 '"
b0 &"
b11 %"
b0 $"
b110 #"
b0 ""
b111111 !"
b0 ~
b11 }
b111111 |
b0 {
b11 z
b111111 y
b0 x
b11 w
b0 v
b1001 u
b0 t
b110 s
b0 r
b11 q
b0 p
b1100 o
b1101 n
b1110 m
b0 l
b0 k
b11 j
b0 i
b0 h
b11 g
b0 f
b0 e
b11 d
b0 c
b0 b
0a
b11 `
b0 _
0^
0]
0\
0[
b0 Z
0Y
1X
b11 W
b0 V
b100 U
b0 T
1S
0R
b111111 Q
b0 P
b11 O
0N
0M
b0 L
1K
0J
b111111 I
b0 H
b11 G
0F
0E
b0 D
1C
0B
b111111 A
b0 @
b11 ?
0>
0=
b1001 <
b0 ;
b0 :
b0 9
b0 8
b0 7
06
05
b1001 4
b0 3
b0 2
01
00
b0 /
0.
b0 -
0,
b0 +
1*
1)
1(
b0 '
b11 &
b0 %
0$
b100 #
0"
0!
$end
#100
b10000100100001001101011000001001 /
b10000100100001001101011000001001 9
b10000100100001001101011000001001 V"
b10000100100001001101011000001001 `"
b11000000100010010101111010000001 -
b11000000100010010101111010000001 8
b11000000100010010101111010000001 A"
b11000000100010010101111010000001 K"
b10010000101010011010100100100 +
b10010000101010011010100100100 7
b10010000101010011010100100100 ,"
b10010000101010011010100100100 6"
b110 #"
11
#150
1."
1C"
1X"
16
#200
01
#300
1*"
b1000110110111111001100110001101 /
b1000110110111111001100110001101 9
b1000110110111111001100110001101 V"
b1000110110111111001100110001101 `"
b110101110010111101100001101 -
b110101110010111101100001101 8
b110101110010111101100001101 A"
b110101110010111101100001101 K"
b10110001111100000101011001100011 +
b10110001111100000101011001100011 7
b10110001111100000101011001100011 ,"
b10110001111100000101011001100011 6"
11
#400
01
#500
b111100111110001100000001 /
b111100111110001100000001 9
b111100111110001100000001 V"
b111100111110001100000001 `"
b10001001001101110101001000010010 -
b10001001001101110101001000010010 8
b10001001001101110101001000010010 A"
b10001001001101110101001000010010 K"
b10110010110000101000010001100101 +
b10110010110000101000010001100101 7
b10110010110000101000010001100101 ,"
b10110010110000101000010001100101 6"
11
#600
01
#700
b11110100011011100110100111101 /
b11110100011011100110100111101 9
b11110100011011100110100111101 V"
b11110100011011100110100111101 `"
b111011001000111111000101110110 -
b111011001000111111000101110110 8
b111011001000111111000101110110 A"
b111011001000111111000101110110 K"
b110110101111100110100001101 +
b110110101111100110100001101 7
b110110101111100110100001101 ,"
b110110101111100110100001101 6"
b10011 4
b10011 <
b10011 u
b10 2
b10 :
b10 v
11
#800
01
#900
b100 o
b10000 3"
b1 O
b1 j
b1 }
b10 P
b10 k
b10 ~
b10 /"
b1 4
b1 <
b1 u
b100 3
b100 ;
b100 t
b1111100111111011110100111111001 /
b1111100111111011110100111111001 9
b1111100111111011110100111111001 V"
b1111100111111011110100111111001 `"
b1000110001011011111011110001100 -
b1000110001011011111011110001100 8
b1000110001011011111011110001100 A"
b1000110001011011111011110001100 K"
b1110110110101000101011111101101 +
b1110110110101000101011111101101 7
b1110110110101000101011111101101 ,"
b1110110110101000101011111101101 6"
11
#1000
01
#1100
b10010 s
b1 n
b0 G
b0 g
b0 z
b11010101000100111101001010101010 /
b11010101000100111101001010101010 9
b11010101000100111101001010101010 V"
b11010101000100111101001010101010 `"
b11100010111101111000010011000101 -
b11100010111101111000010011000101 8
b11100010111101111000010011000101 A"
b11100010111101111000010011000101 K"
b11100011001101110010010011000110 +
b11100011001101110010010011000110 7
b11100011001101110010010011000110 ,"
b11100011001101110010010011000110 6"
b1001 4
b1001 <
b1001 u
b1000 3
b1000 ;
b1000 t
11
#1200
01
#1300
b11000 s
b10 m
b1000 ]"
b0 ?
b0 d
b0 w
b1 @
b1 e
b1 x
b1 Y"
b0 3
b0 ;
b0 t
b1 2
b1 :
b1 v
b10001001001100101101011000010010 /
b10001001001100101101011000010010 9
b10001001001100101101011000010010 V"
b10001001001100101101011000010010 `"
b10111011110100100111001001110111 -
b10111011110100100111001001110111 8
b10111011110100100111001001110111 A"
b10111011110100100111001001110111 K"
b1110010101011111111011111100101 +
b1110010101011111111011111100101 7
b1110010101011111111011111100101 ,"
b1110010101011111111011111100101 6"
11
#1400
01
#1500
b10011 '
b10011 Z
b10011 ""
b11100111011101101001011011001110 /
b11100111011101101001011011001110 9
b11100111011101101001011011001110 V"
b11100111011101101001011011001110 `"
b1111001001100000110100111110010 -
b1111001001100000110100111110010 8
b1111001001100000110100111110010 A"
b1111001001100000110100111110010 K"
b1000111111011001101101110001111 +
b1000111111011001101101110001111 7
b1000111111011001101101110001111 ,"
b1000111111011001101101110001111 6"
b100 3
b100 ;
b100 t
11
#1600
01
#1700
b1 '
b1 Z
b1 ""
b1000 3
b1000 ;
b1000 t
b101110010110000100100101011100 /
b101110010110000100100101011100 9
b101110010110000100100101011100 V"
b101110010110000100100101011100 `"
b11100010110010100100111011000101 -
b11100010110010100100111011000101 8
b11100010110010100100111011000101 A"
b11100010110010100100111011000101 K"
b11110100000000000111101011101000 +
b11110100000000000111101011101000 7
b11110100000000000111101011101000 ,"
b11110100000000000111101011101000 6"
11
#1800
01
#1900
b1001 '
b1001 Z
b1001 ""
b10110010101001110010011001100101 /
b10110010101001110010011001100101 9
b10110010101001110010011001100101 V"
b10110010101001110010011001100101 `"
b10010110101010110101100000101101 -
b10010110101010110101100000101101 8
b10010110101010110101100000101101 A"
b10010110101010110101100000101101 K"
b11011110100011100010100010111101 +
b11011110100011100010100010111101 7
b11011110100011100010100010111101 ,"
b11011110100011100010100010111101 6"
b1100 3
b1100 ;
b1100 t
11
#2000
01
#2100
b111111 '
b111111 Z
b111111 ""
b10000 3
b10000 ;
b10000 t
b11000000001110110010001010000000 /
b11000000001110110010001010000000 9
b11000000001110110010001010000000 V"
b11000000001110110010001010000000 `"
b101011100111000011100001010 -
b101011100111000011100001010 8
b101011100111000011100001010 A"
b101011100111000011100001010 K"
b10110001111011110110001001100011 +
b10110001111011110110001001100011 7
b10110001111011110110001001100011 ,"
b10110001111011110110001001100011 6"
11
#2200
01
#2300
b11001110110011001100110010011101 /
b11001110110011001100110010011101 9
b11001110110011001100110010011101 V"
b11001110110011001100110010011101 `"
b1010101011110000100010110101010 -
b1010101011110000100010110101010 8
b1010101011110000100010110101010 A"
b1010101011110000100010110101010 K"
b10000011001000010000100100000 +
b10000011001000010000100100000 7
b10000011001000010000100100000 ,"
b10000011001000010000100100000 6"
b10100 3
b10100 ;
b10100 t
11
#2400
01
#2500
b10000110101111000011100000001101 /
b10000110101111000011100000001101 9
b10000110101111000011100000001101 V"
b10000110101111000011100000001101 `"
b10001001100000111011100000010011 -
b10001001100000111011100000010011 8
b10001001100000111011100000010011 A"
b10001001100000111011100000010011 K"
b11001011001000000011111010010110 +
b11001011001000000011111010010110 7
b11001011001000000011111010010110 ,"
b11001011001000000011111010010110 6"
11
b10000 3
b10000 ;
b10000 t
#2600
01
#2700
1Z"
1E"
10"
b11101010101001100010101011010101 /
b11101010101001100010101011010101 9
b11101010101001100010101011010101 V"
b11101010101001100010101011010101 `"
b110101100111111101110101101011 -
b110101100111111101110101101011 8
b110101100111111101110101101011 A"
b110101100111111101110101101011 K"
b10101001101001111101011001010011 +
b10101001101001111101011001010011 7
b10101001101001111101011001010011 ,"
b10101001101001111101011001010011 6"
10
1.
1,
11
#2800
01
#2900
0<"
b1 7"
0Q"
b1 L"
0f"
b1 a"
b1 @"
b1 U"
b1 j"
b1110111111111110100100011101 /
b1110111111111110100100011101 9
b1110111111111110100100011101 V"
b1110111111111110100100011101 `"
b11010111010101100011111010101110 -
b11010111010101100011111010101110 8
b11010111010101100011111010101110 A"
b11010111010101100011111010101110 K"
b10000001000101110100101000000010 +
b10000001000101110100101000000010 7
b10000001000101110100101000000010 ,"
b10000001000101110100101000000010 6"
11
#3000
01
#3100
b111110 Q
b111110 !"
b111110 4"
b111110 ="
b111110 I
b111110 |
b111110 I"
b111110 R"
b111110 A
b111110 y
b111110 ^"
b111110 g"
b10 7"
b10 L"
b10 a"
b10 @"
b10 U"
b10 j"
b101000010010110010100001010 /
b101000010010110010100001010 9
b101000010010110010100001010 V"
b101000010010110010100001010 `"
b10001100001000100100100100011 -
b10001100001000100100100100011 8
b10001100001000100100100100011 A"
b10001100001000100100100100011 K"
b11100111110001010111001011001111 +
b11100111110001010111001011001111 7
b11100111110001010111001011001111 ,"
b11100111110001010111001011001111 6"
11
#3200
01
#3300
b111101 Q
b111101 !"
b111101 4"
b111101 ="
b111101 I
b111101 |
b111101 I"
b111101 R"
b111101 A
b111101 y
b111101 ^"
b111101 g"
b11 7"
b11 L"
b11 a"
b11 @"
b11 U"
b11 j"
b1111001011010001011110111110010 /
b1111001011010001011110111110010 9
b1111001011010001011110111110010 V"
b1111001011010001011110111110010 `"
b10011110001100010100110000111100 -
b10011110001100010100110000111100 8
b10011110001100010100110000111100 A"
b10011110001100010100110000111100 K"
b11100101011100110000101011001010 +
b11100101011100110000101011001010 7
b11100101011100110000101011001010 ,"
b11100101011100110000101011001010 6"
11
#3400
01
#3500
b10 c
1F
b111100 Q
b111100 !"
b111100 4"
b111100 ="
b111100 I
b111100 |
b111100 I"
b111100 R"
b111100 A
b111100 y
b111100 ^"
b111100 g"
b100 7"
b100 L"
b100 a"
0E"
b111110 '
b111110 Z
b111110 ""
b100 @"
b100 U"
b100 j"
b11101100010010110011010011011000 /
b11101100010010110011010011011000 9
b11101100010010110011010011011000 V"
b11101100010010110011010011011000 `"
b100000110001001011001101000001 -
b100000110001001011001101000001 8
b100000110001001011001101000001 A"
b100000110001001011001101000001 K"
b1000101001011100110000110001010 +
b1000101001011100110000110001010 7
b1000101001011100110000110001010 ,"
b1000101001011100110000110001010 6"
0.
11
#3600
01
#3700
1"
b111011 Q
b111011 !"
b111011 4"
b111011 ="
b111011 A
b111011 y
b111011 ^"
b111011 g"
b101 7"
b101 a"
b1 &
b1 W
b1 '"
b1 `
b1 q
b1 %"
b111101 '
b111101 Z
b111101 ""
b101 @"
b101 j"
b1110101110001010000110111101011 /
b1110101110001010000110111101011 9
b1110101110001010000110111101011 V"
b1110101110001010000110111101011 `"
b11000100100010100001001010001001 -
b11000100100010100001001010001001 8
b11000100100010100001001010001001 A"
b11000100100010100001001010001001 K"
b111100001000001111001101111000 +
b111100001000001111001101111000 7
b111100001000001111001101111000 ,"
b111100001000001111001101111000 6"
11
#3800
01
#3900
1B"
b111010 Q
b111010 !"
b111010 4"
b111010 ="
b111010 A
b111010 y
b111010 ^"
b111010 g"
1\
b110 7"
b110 a"
1Y
b111100 '
b111100 Z
b111100 ""
b110 @"
b110 j"
b1010111000101010001001110101110 /
b1010111000101010001001110101110 9
b1010111000101010001001110101110 V"
b1010111000101010001001110101110 `"
b1100011010010111111100111000110 -
b1100011010010111111100111000110 8
b1100011010010111111100111000110 A"
b1100011010010111111100111000110 K"
b1011011000000100110010110110110 +
b1011011000000100110010110110110 7
b1011011000000100110010110110110 ,"
b1011011000000100110010110110110 6"
15
11
#4000
01
#4100
0\
b0 c
0F
0Y
0"
b111001 Q
b111001 !"
b111001 4"
b111001 ="
1F"
b111101 I
b111101 |
b111101 I"
b111101 R"
b111001 A
b111001 y
b111001 ^"
b111001 g"
b111 7"
b1 N"
b110101100111111101110101101011 %
b110101100111111101110101101011 V
b110101100111111101110101101011 ("
b110101100111111101110101101011 b
b110101100111111101110101101011 p
b110101100111111101110101101011 $"
1^
b111 a"
1!
0X
b111 @"
1E
b1 J"
b1 T"
b110101100111111101110101101011 L
b110101100111111101110101101011 i
b110101100111111101110101101011 G"
b110101100111111101110101101011 S"
b111 j"
b10000101110101111001101000001011 /
b10000101110101111001101000001011 9
b10000101110101111001101000001011 V"
b10000101110101111001101000001011 `"
b10101000011111101110100101010 -
b10101000011111101110100101010 8
b10101000011111101110100101010 A"
b10101000011111101110100101010 K"
b11011110011101010000001010111100 +
b11011110011101010000001010111100 7
b11011110011101010000001010111100 ,"
b11011110011101010000001010111100 6"
11
#4200
01
#4300
b100 c
1>
b111000 Q
b111000 !"
b111000 4"
b111000 ="
b111110 I
b111110 |
b111110 I"
b111110 R"
b111000 A
b111000 y
b111000 ^"
b111000 g"
b1000 7"
b10 N"
b11010111010101100011111010101110 %
b11010111010101100011111010101110 V
b11010111010101100011111010101110 ("
b11010111010101100011111010101110 b
b11010111010101100011111010101110 p
b11010111010101100011111010101110 $"
b1000 a"
0*"
0!
b1000 @"
b10 T"
b11010111010101100011111010101110 L
b11010111010101100011111010101110 i
b11010111010101100011111010101110 G"
b11010111010101100011111010101110 S"
b10 J"
b1000 j"
b100111111100100101010101001111 /
b100111111100100101010101001111 9
b100111111100100101010101001111 V"
b100111111100100101010101001111 `"
b1000010111100100100000110000101 -
b1000010111100100100000110000101 8
b1000010111100100100000110000101 A"
b1000010111100100100000110000101 K"
b10111000100101111011111001110001 +
b10111000100101111011111001110001 7
b10111000100101111011111001110001 ,"
b10111000100101111011111001110001 6"
05
11
#4400
01
#4500
b110111 Q
b110111 !"
b110111 4"
b110111 ="
b111111 I
b111111 |
b111111 I"
b111111 R"
b110111 A
b110111 y
b110111 ^"
b110111 g"
b1001 7"
b11 N"
b10001100001000100100100100011 %
b10001100001000100100100100011 V
b10001100001000100100100100011 ("
b10001100001000100100100100011 b
b10001100001000100100100100011 p
b10001100001000100100100100011 $"
b1001 a"
b111101 '
b111101 Z
b111101 ""
b1001 @"
b11 J"
b11 T"
b10001100001000100100100100011 L
b10001100001000100100100100011 i
b10001100001000100100100100011 G"
b10001100001000100100100100011 S"
b1001 j"
b10111111001000110011001001111110 /
b10111111001000110011001001111110 9
b10111111001000110011001001111110 V"
b10111111001000110011001001111110 `"
b11101000001100011001100111010 -
b11101000001100011001100111010 8
b11101000001100011001100111010 A"
b11101000001100011001100111010 K"
b10011101110011000110000000111011 +
b10011101110011000110000000111011 7
b10011101110011000110000000111011 ,"
b10011101110011000110000000111011 6"
11
#4600
01
#4700
b100 c
0F
0B"
b110110 Q
b110110 !"
b110110 4"
b110110 ="
1)
b111111 I
b111111 |
b111111 I"
b111111 R"
0F"
b110110 A
b110110 y
b110110 ^"
b110110 g"
b1010 7"
1Q"
b100 N"
1$
1a
b10011110001100010100110000111100 %
b10011110001100010100110000111100 V
b10011110001100010100110000111100 ("
b10011110001100010100110000111100 b
b10011110001100010100110000111100 p
b10011110001100010100110000111100 $"
b1010 a"
b111110 '
b111110 Z
b111110 ""
b1010 @"
b100 T"
b10011110001100010100110000111100 L
b10011110001100010100110000111100 i
b10011110001100010100110000111100 G"
b10011110001100010100110000111100 S"
b0 J"
1J
b1010 j"
b1101100100111000100101111011001 /
b1101100100111000100101111011001 9
b1101100100111000100101111011001 V"
b1101100100111000100101111011001 `"
b1111000110110011001101111110001 -
b1111000110110011001101111110001 8
b1111000110110011001101111110001 A"
b1111000110110011001101111110001 K"
b1010101010100100101100010101 +
b1010101010100100101100010101 7
b1010101010100100101100010101 ,"
b1010101010100100101100010101 6"
11
#4800
01
#4900
b110101 Q
b110101 !"
b110101 4"
b110101 ="
b110101 A
b110101 y
b110101 ^"
b110101 g"
b1011 7"
0$
0a
0^
b1011 a"
1)"
b111111 '
b111111 Z
b111111 ""
b1011 @"
0J
0E
b1011 j"
b1001111101000010101010110011111 /
b1001111101000010101010110011111 9
b1001111101000010101010110011111 V"
b1001111101000010101010110011111 `"
b100110001101011111101101001100 -
b100110001101011111101101001100 8
b100110001101011111101101001100 A"
b100110001101011111101101001100 K"
b110001001000110000011101100010 +
b110001001000110000011101100010 7
b110001001000110000011101100010 ,"
b110001001000110000011101100010 6"
11
#5000
01
#5100
b110100 Q
b110100 !"
b110100 4"
b110100 ="
b110100 A
b110100 y
b110100 ^"
b110100 g"
b1100 7"
b1100 a"
0)"
1X
b1100 @"
b1100 j"
b11011011110011010110000010110111 /
b11011011110011010110000010110111 9
b11011011110011010110000010110111 V"
b11011011110011010110000010110111 `"
b1111100011011011010100111111000 -
b1111100011011011010100111111000 8
b1111100011011011010100111111000 A"
b1111100011011011010100111111000 K"
b1000111101110011010000110001111 +
b1000111101110011010000110001111 7
b1000111101110011010000110001111 ,"
b1000111101110011010000110001111 6"
11
#5200
01
#5300
b1000 #
b1000 U
b1000 +"
b110011 Q
b110011 !"
b110011 4"
b110011 ="
b110011 A
b110011 y
b110011 ^"
b110011 g"
1"
b1 _
b1 r
b1 &"
b0 %
b0 V
b0 ("
b0 b
b0 p
b0 $"
b1101 7"
b1101 a"
1*"
b10 &
b10 W
b10 '"
b10 `
b10 q
b10 %"
b1101 @"
b1101 j"
b10101101110010111100000001011011 /
b10101101110010111100000001011011 9
b10101101110010111100000001011011 V"
b10101101110010111100000001011011 `"
b10101110011111011001010001011100 -
b10101110011111011001010001011100 8
b10101110011111011001010001011100 A"
b10101110011111011001010001011100 K"
b11001111110001000101011010011111 +
b11001111110001000101011010011111 7
b11001111110001000101011010011111 ,"
b11001111110001000101011010011111 6"
11
#5400
01
#5500
1W"
b110010 Q
b110010 !"
b110010 4"
b110010 ="
b110010 A
b110010 y
b110010 ^"
b110010 g"
1[
b1110 7"
b1110 a"
0Z"
1Y
b1110 @"
b1110 j"
b11101000001000110011111011010000 /
b11101000001000110011111011010000 9
b11101000001000110011111011010000 V"
b11101000001000110011111011010000 `"
b10100100101011100011001001001001 -
b10100100101011100011001001001001 8
b10100100101011100011001001001001 A"
b10100100101011100011001001001001 K"
b1000100110111100011011110001001 +
b1000100110111100011011110001001 7
b1000100110111100011011110001001 ,"
b1000100110111100011011110001001 6"
00
15
11
#5600
01
#5700
0[
0Y
0"
b110001 Q
b110001 !"
b110001 4"
b110001 ="
1["
b110011 A
b110011 y
b110011 ^"
b110011 g"
b1111 7"
b1 c"
b11101010101001100010101011010101 %
b11101010101001100010101011010101 V
b11101010101001100010101011010101 ("
b11101010101001100010101011010101 b
b11101010101001100010101011010101 p
b11101010101001100010101011010101 $"
1^
1!
0X
b1111 @"
1=
b1 _"
b1 i"
b11101010101001100010101011010101 D
b11101010101001100010101011010101 f
b11101010101001100010101011010101 \"
b11101010101001100010101011010101 h"
b1001011001000010010111110010110 /
b1001011001000010010111110010110 9
b1001011001000010010111110010110 V"
b1001011001000010010111110010110 `"
b10101000110001111111110001010001 -
b10101000110001111111110001010001 8
b10101000110001111111110001010001 A"
b10101000110001111111110001010001 K"
b11101011111111101100000011010111 +
b11101011111111101100000011010111 7
b11101011111111101100000011010111 ,"
b11101011111111101100000011010111 6"
11
#5800
01
