[牛客]同步FIFO/SCFIFO_tb.vcd
$date
	Tue Nov 22 20:32:30 2022
$end
$version
	Icarus Verilog
$end
$timescale
	1ns
$end
$scope module SCFIFO_tb $end
$var wire 1 ! wfull $end
$var wire 1 " rempty $end
$var wire 8 # rdata [7:0] $end
$var parameter 32 $ DEPTH $end
$var parameter 32 % WIDTH $end
$var reg 1 & clk $end
$var reg 1 ' rinc $end
$var reg 1 ( rst_n $end
$var reg 8 ) wdata [7:0] $end
$var reg 1 * winc $end
$scope module sfifo_inst1 $end
$var wire 1 & clk $end
$var wire 1 ' rinc $end
$var wire 1 ( rst_n $end
$var wire 8 + wdata [7:0] $end
$var wire 1 * winc $end
$var wire 4 , wr_addr_true [3:0] $end
$var wire 1 - wr_addr_msb $end
$var wire 1 ! wfull $end
$var wire 1 " rempty $end
$var wire 8 . rdata [7:0] $end
$var wire 4 / rd_addr_true [3:0] $end
$var wire 1 0 rd_addr_msb $end
$var parameter 32 1 DEPTH $end
$var parameter 32 2 WIDTH $end
$var reg 5 3 rd_addr [4:0] $end
$var reg 5 4 wr_addr [4:0] $end
$scope module RAM1 $end
$var wire 4 5 raddr [3:0] $end
$var wire 1 & rclk $end
$var wire 1 ' renc $end
$var wire 4 6 waddr [3:0] $end
$var wire 1 & wclk $end
$var wire 8 7 wdata [7:0] $end
$var wire 1 * wenc $end
$var parameter 32 8 DEPTH $end
$var parameter 32 9 WIDTH $end
$var reg 8 : rdata [7:0] $end
$upscope $end
$upscope $end
$upscope $end
$enddefinitions $end
$comment Show the parameter values. $end
$dumpall
b1000 9
b10000 8
b1000 2
b10000 1
b1000 %
b10000 $
$end
#0
$dumpvars
bx :
b0 7
b0 6
b0 5
b0 4
b0 3
00
b0 /
bx .
0-
b0 ,
b0 +
1*
b0 )
0(
0'
0&
bx #
1"
0!
$end
#10
1&
#20
0&
#30
1&
#35
1(
#40
b100100 )
b100100 +
b100100 7
0&
#50
0"
b1 ,
b1 6
b1 4
1&
#60
b10000001 )
b10000001 +
b10000001 7
0&
#70
b10 ,
b10 6
b10 4
1&
#80
b1001 )
b1001 +
b1001 7
0&
#90
b11 ,
b11 6
b11 4
1&
#100
b1100011 )
b1100011 +
b1100011 7
0&
#110
b100 ,
b100 6
b100 4
1&
#120
b1101 )
b1101 +
b1101 7
0&
#130
b101 ,
b101 6
b101 4
1&
#140
b10001101 )
b10001101 +
b10001101 7
0&
#150
b110 ,
b110 6
b110 4
1&
#160
b1100101 )
b1100101 +
b1100101 7
0&
#170
b111 ,
b111 6
b111 4
1&
#180
b10010 )
b10010 +
b10010 7
0&
#190
b1000 ,
b1000 6
b1000 4
1&
#200
b1 )
b1 +
b1 7
0&
#210
b1001 ,
b1001 6
b1001 4
1&
#220
b1101 )
b1101 +
b1101 7
0&
#230
b1010 ,
b1010 6
b1010 4
1&
#240
b1110110 )
b1110110 +
b1110110 7
0&
#250
b1011 ,
b1011 6
b1011 4
1&
#260
b111101 )
b111101 +
b111101 7
0&
#270
b1100 ,
b1100 6
b1100 4
1&
#280
b11101101 )
b11101101 +
b11101101 7
0&
#290
b1101 ,
b1101 6
b1101 4
1&
#300
b10001100 )
b10001100 +
b10001100 7
0&
#310
b1110 ,
b1110 6
b1110 4
1&
#320
b11111001 )
b11111001 +
b11111001 7
0&
#330
b1111 ,
b1111 6
b1111 4
1&
#340
b11000110 )
b11000110 +
b11000110 7
0&
#350
1!
1-
b0 ,
b0 6
b10000 4
1&
#360
b11000101 )
b11000101 +
b11000101 7
0&
#370
1&
#380
1'
0*
b10101010 )
b10101010 +
b10101010 7
0&
#390
0!
b1 /
b1 5
b11000101 #
b11000101 .
b11000101 :
b1 3
1&
#400
b11100101 )
b11100101 +
b11100101 7
0&
#410
b10 /
b10 5
b10000001 #
b10000001 .
b10000001 :
b10 3
1&
#420
b1110111 )
b1110111 +
b1110111 7
0&
#430
b11 /
b11 5
b1001 #
b1001 .
b1001 :
b11 3
1&
#440
b10010 )
b10010 +
b10010 7
0&
#450
b100 /
b100 5
b1100011 #
b1100011 .
b1100011 :
b100 3
1&
#460
b10001111 )
b10001111 +
b10001111 7
0&
#470
b101 /
b101 5
b1101 #
b1101 .
b1101 :
b101 3
1&
#480
b11110010 )
b11110010 +
b11110010 7
0&
#490
b110 /
b110 5
b10001101 #
b10001101 .
b10001101 :
b110 3
1&
#500
b11001110 )
b11001110 +
b11001110 7
0&
#510
b111 /
b111 5
b1100101 #
b1100101 .
b1100101 :
b111 3
1&
#520
b11101000 )
b11101000 +
b11101000 7
0&
#530
b1000 /
b1000 5
b10010 #
b10010 .
b10010 :
b1000 3
1&
#540
b11000101 )
b11000101 +
b11000101 7
0&
#550
b1001 /
b1001 5
b1 #
b1 .
b1 :
b1001 3
1&
#560
b1011100 )
b1011100 +
b1011100 7
0&
#570
b1010 /
b1010 5
b1101 #
b1101 .
b1101 :
b1010 3
1&
#580
b10111101 )
b10111101 +
b10111101 7
0&
#590
b1011 /
b1011 5
b1110110 #
b1110110 .
b1110110 :
b1011 3
1&
#600
b101101 )
b101101 +
b101101 7
0&
#610
b1100 /
b1100 5
b111101 #
b111101 .
b111101 :
b1100 3
1&
#620
b1100101 )
b1100101 +
b1100101 7
0&
#630
b1101 /
b1101 5
b11101101 #
b11101101 .
b11101101 :
b1101 3
1&
#640
b1100011 )
b1100011 +
b1100011 7
0&
#650
b1110 /
b1110 5
b10001100 #
b10001100 .
b10001100 :
b1110 3
1&
#660
b1010 )
b1010 +
b1010 7
0&
#670
b1111 /
b1111 5
b11111001 #
b11111001 .
b11111001 :
b1111 3
1&
#680
b10000000 )
b10000000 +
b10000000 7
0&
#690
0!
1"
10
b0 /
b0 5
b11000110 #
b11000110 .
b11000110 :
b10000 3
1&
#700
b100000 )
b100000 +
b100000 7
0&
#710
b11000101 #
b11000101 .
b11000101 :
1&
#720
b10101010 )
b10101010 +
b10101010 7
0&
#730
1&
#740
b10011101 )
b10011101 +
b10011101 7
0&
