同步异步电路/数据信号的同步(异步FIFO)/ASFIFO.vcd
$date
	Tue Feb 28 00:20:57 2023
$end
$version
	Icarus Verilog
$end
$timescale
	1ns
$end
$scope module ASFIFO_tb $end
$var wire 1 ! wfull $end
$var wire 1 " rempty $end
$var wire 8 # rdata [7:0] $end
$var parameter 32 $ DEPTH $end
$var parameter 32 % WIDTH $end
$var reg 1 & rclk $end
$var reg 1 ' rinc $end
$var reg 1 ( rrstn $end
$var reg 1 ) wclk $end
$var reg 8 * wdata [7:0] $end
$var reg 1 + winc $end
$var reg 1 , wrstn $end
$scope module a1 $end
$var wire 1 & rclk $end
$var wire 1 - renc $end
$var wire 1 ' rinc $end
$var wire 1 ( rrstn $end
$var wire 1 ) wclk $end
$var wire 8 . wdata [7:0] $end
$var wire 1 / wenc $end
$var wire 1 + winc $end
$var wire 1 , wrstn $end
$var wire 1 ! wfull $end
$var wire 1 " rempty $end
$var wire 8 0 rdata [7:0] $end
$var parameter 32 1 DEPTH $end
$var parameter 32 2 WIDTH $end
$var reg 5 3 rptr_expand [4:0] $end
$var reg 5 4 rptr_expand_g [4:0] $end
$var reg 5 5 rptr_expand_g_d1 [4:0] $end
$var reg 5 6 rptr_expand_g_d2 [4:0] $end
$var reg 5 7 wptr_expand [4:0] $end
$var reg 5 8 wptr_expand_g [4:0] $end
$var reg 5 9 wptr_expand_g_d1 [4:0] $end
$var reg 5 : wptr_expand_g_d2 [4:0] $end
$scope module d1 $end
$var wire 4 ; raddr [3:0] $end
$var wire 1 & rclk $end
$var wire 1 - renc $end
$var wire 4 < waddr [3:0] $end
$var wire 1 ) wclk $end
$var wire 8 = wdata [7:0] $end
$var wire 1 / wenc $end
$var parameter 32 > DEPTH $end
$var parameter 32 ? WIDTH $end
$var reg 8 @ rdata [7:0] $end
$upscope $end
$upscope $end
$upscope $end
$enddefinitions $end
$comment Show the parameter values. $end
$dumpall
b1000 ?
b10000 >
b1000 2
b10000 1
b1000 %
b10000 $
$end
#0
$dumpvars
bx @
b100100 =
b0 <
b0 ;
b0 :
b0 9
b0 8
b0 7
b0 6
b0 5
b0 4
b0 3
bx 0
1/
b100100 .
0-
0,
1+
b100100 *
0)
0(
0'
0&
bx #
1"
0!
$end
#3
1&
#6
0&
#9
1&
#10
1)
#12
0&
#15
1&
#18
0&
#20
0)
#21
1&
#24
0&
#27
1&
#30
0&
1)
#33
1&
#35
1(
1,
#36
0&
#39
1&
#40
b10000001 *
b10000001 .
b10000001 =
0)
#42
0&
#45
1&
#48
0&
#50
b1 <
b1 7
1)
#51
1&
#54
0&
#57
1&
#60
b1001 *
b1001 .
b1001 =
0&
0)
#63
1&
#66
0&
#69
1&
#70
b10 <
b10 7
b1 8
1)
#72
0&
#75
b1 9
1&
#78
0&
#80
b1100011 *
b1100011 .
b1100011 =
0)
#81
0"
b1 :
1&
#84
0&
#87
1&
#90
b11 <
b11 8
b11 7
0&
1)
#93
b11 9
1&
#96
0&
#99
b11 :
1&
#100
b1101 *
b1101 .
b1101 =
0)
#102
0&
#105
1&
#108
0&
#110
b100 <
b100 7
b10 8
1)
#111
b10 9
1&
#114
0&
#117
b10 :
1&
#120
b10001101 *
b10001101 .
b10001101 =
0&
0)
#123
1&
#126
0&
#129
1&
#130
b101 <
b110 8
b101 7
1)
#132
0&
#135
b110 9
1&
#138
0&
#140
b1100101 *
b1100101 .
b1100101 =
0)
#141
b110 :
1&
#144
0&
#147
1&
#150
b110 <
b110 7
b111 8
0&
1)
#153
b111 9
1&
#156
0&
#159
b111 :
1&
#160
b10010 *
b10010 .
b10010 =
0)
#162
0&
#165
1&
#168
0&
#170
b111 <
b101 8
b111 7
1)
#171
b101 9
1&
#174
0&
#177
b101 :
1&
#180
b1 *
b1 .
b1 =
0&
0)
#183
1&
#186
0&
#189
1&
#190
b1000 <
b1000 7
b100 8
1)
#192
0&
#195
b100 9
1&
#198
0&
#200
b1101 *
b1101 .
b1101 =
0)
#201
b100 :
1&
#204
0&
#207
1&
#210
b1001 <
b1100 8
b1001 7
0&
1)
#213
b1100 9
1&
#216
0&
#219
b1100 :
1&
#220
b1110110 *
b1110110 .
b1110110 =
0)
#222
0&
#225
1&
#226
1-
1'
#228
0&
#230
b1010 <
b1010 7
b1101 8
1)
#231
b1 ;
b10000001 #
b10000001 0
b10000001 @
b1101 9
b1 3
1&
#234
0&
#237
b10 ;
b1001 #
b1001 0
b1001 @
b10 3
b1 4
b1101 :
1&
#240
b111101 *
b111101 .
b111101 =
0&
0)
#243
b11 ;
b1100011 #
b1100011 0
b1100011 @
b11 4
b11 3
1&
#246
0&
#249
b100 ;
b1101 #
b1101 0
b1101 @
b100 3
b10 4
1&
#250
b1011 <
b10 5
b1111 8
b1011 7
1)
#252
0&
#255
b101 ;
b10001101 #
b10001101 0
b10001101 @
b1111 9
b110 4
b101 3
1&
#258
0&
#260
b11101101 *
b11101101 .
b11101101 =
0)
#261
b110 ;
b1100101 #
b1100101 0
b1100101 @
b110 3
b111 4
b1111 :
1&
#264
0&
#267
b111 ;
b10010 #
b10010 0
b10010 @
b101 4
b111 3
1&
#270
b1100 <
b1100 7
b1110 8
b10 6
b101 5
0&
1)
#273
b1000 ;
b1 #
b1 0
b1 @
b1000 3
b100 4
b1110 9
1&
#276
0&
#279
b1001 ;
b1101 #
b1101 0
b1101 @
b1110 :
b1100 4
b1001 3
1&
#280
b10001100 *
b10001100 .
b10001100 =
0)
#282
0&
#285
b1010 ;
b1110110 #
b1110110 0
b1110110 @
b1010 3
b1101 4
1&
#288
0&
#290
b1101 <
b101 6
b1101 5
b1010 8
b1101 7
1)
#291
b1011 ;
b111101 #
b111101 0
b111101 @
b1010 9
b1111 4
b1011 3
1&
#294
0&
#297
b1100 ;
b11101101 #
b11101101 0
b11101101 @
b1100 3
b1110 4
b1010 :
1&
#300
b11111001 *
b11111001 .
b11111001 =
0&
0)
#303
0-
1"
b1101 ;
b10001100 #
b10001100 0
b10001100 @
b1010 4
b1101 3
1&
#306
0&
#309
1-
0"
b1011 4
1&
#310
b1110 <
b1110 7
b1011 8
b1101 6
b1011 5
1)
#312
0&
#315
b1110 ;
b11111001 #
b11111001 0
b11111001 @
b1011 9
b1110 3
1&
#318
0&
#320
b11000110 *
b11000110 .
b11000110 =
0)
#321
b1111 ;
bx #
bx 0
bx @
b1111 3
b1001 4
b1011 :
1&
#324
0&
#327
b0 ;
b1000 4
b10000 3
1&
#330
b1111 <
b1011 6
b1000 5
b1001 8
b1111 7
0&
1)
#333
b1 ;
b10000001 #
b10000001 0
b10000001 @
b10001 3
b11000 4
b1001 9
1&
#336
0&
#339
b10 ;
b1001 #
b1001 0
b1001 @
b1001 :
b11001 4
b10010 3
1&
#340
b11000101 *
b11000101 .
b11000101 =
0)
#342
0&
#345
b11 ;
b1100011 #
b1100011 0
b1100011 @
b10011 3
b11011 4
1&
#348
0&
#350
b0 <
b10000 7
b1000 8
b1000 6
b11011 5
1)
#351
b100 ;
b1101 #
b1101 0
b1101 @
b1000 9
b11010 4
b10100 3
1&
#354
0&
#357
b101 ;
b10001101 #
b10001101 0
b10001101 @
b10101 3
b11110 4
b1000 :
1&
#360
b10101010 *
b10101010 .
b10101010 =
0&
0)
#363
b110 ;
b1100101 #
b1100101 0
b1100101 @
b11111 4
b10110 3
1&
#366
0&
#369
b111 ;
b10010 #
b10010 0
b10010 @
b10111 3
b11101 4
1&
#370
b1 <
b11011 6
b11101 5
b11000 8
b10001 7
1)
#372
0&
#375
b1000 ;
b1 #
b1 0
b1 @
b11000 9
b11100 4
b11000 3
1&
#378
0&
#380
b11100101 *
b11100101 .
b11100101 =
0)
#381
b1001 ;
b1101 #
b1101 0
b1101 @
b11001 3
b10100 4
b11000 :
1&
#384
0&
#387
b1010 ;
b1110110 #
b1110110 0
b1110110 @
b10101 4
b11010 3
1&
#390
b10 <
b10010 7
b11001 8
b11101 6
b10101 5
0&
1)
#393
b1011 ;
b111101 #
b111101 0
b111101 @
b11011 3
b10111 4
b11001 9
1&
#396
0&
#399
b1100 ;
b11101101 #
b11101101 0
b11101101 @
b11001 :
b10110 4
b11100 3
1&
#400
b1110111 *
b1110111 .
b1110111 =
0)
#402
0&
#405
b1101 ;
b10001100 #
b10001100 0
b10001100 @
b11101 3
b10010 4
1&
#408
0&
#410
b11 <
b10101 6
b10010 5
b11011 8
b10011 7
1)
#411
b1110 ;
b11111001 #
b11111001 0
b11111001 @
b11011 9
b10011 4
b11110 3
1&
#414
0&
#417
b1111 ;
b11000110 #
b11000110 0
b11000110 @
b11111 3
b10001 4
b11011 :
1&
#420
b10010 *
b10010 .
b10010 =
0&
0)
#423
b0 ;
b11000101 #
b11000101 0
b11000101 @
b10000 4
b0 3
1&
#426
0&
#429
b1 ;
b10101010 #
b10101010 0
b10101010 @
b1 3
b0 4
1&
#430
b100 <
b10100 7
b11010 8
b10010 6
b0 5
1)
#432
0&
#435
b10 ;
b11100101 #
b11100101 0
b11100101 @
b11010 9
b1 4
b10 3
1&
#438
0&
#440
b10001111 *
b10001111 .
b10001111 =
0)
#441
b11 ;
b1110111 #
b1110111 0
b1110111 @
b11 3
b11 4
b11010 :
1&
#444
0&
#447
b100 ;
b10010 #
b10010 0
b10010 @
b10 4
b100 3
1&
#450
b101 <
b0 6
b10 5
b11110 8
b10101 7
0&
1)
#453
b101 ;
b10001111 #
b10001111 0
b10001111 @
b101 3
b110 4
b11110 9
1&
#456
0&
#459
b110 ;
b1100101 #
b1100101 0
b1100101 @
b11110 :
b111 4
b110 3
1&
#460
b11110010 *
b11110010 .
b11110010 =
0)
#462
0&
#465
b111 ;
b10010 #
b10010 0
b10010 @
b111 3
b101 4
1&
#468
0&
#470
b110 <
b10110 7
b11111 8
b10 6
b101 5
1)
#471
b1000 ;
b1 #
b1 0
b1 @
b11111 9
b100 4
b1000 3
1&
#474
0&
#477
b1001 ;
b1101 #
b1101 0
b1101 @
b1001 3
b1100 4
b11111 :
1&
#480
b11001110 *
b11001110 .
b11001110 =
0&
0)
#483
b1010 ;
b1110110 #
b1110110 0
b1110110 @
b1101 4
b1010 3
1&
#486
0&
#489
b1011 ;
b111101 #
b111101 0
b111101 @
b1011 3
b1111 4
1&
#490
0/
1!
b111 <
b101 6
b1111 5
b11101 8
b10111 7
1)
#492
0&
#495
b1100 ;
b11101101 #
b11101101 0
b11101101 @
b11101 9
b1110 4
b1100 3
1&
#498
0&
#500
b11101000 *
b11101000 .
b11101000 =
0)
#501
b1101 ;
b10001100 #
b10001100 0
b10001100 @
b1101 3
b1010 4
b11101 :
1&
#504
0&
#507
b1110 ;
b11111001 #
b11111001 0
b11111001 @
b1011 4
b1110 3
1&
#510
1/
0!
b11100 8
b1111 6
b1011 5
0&
1)
#513
b1111 ;
b11000110 #
b11000110 0
b11000110 @
b1111 3
b1001 4
b11100 9
1&
#516
0&
#519
b0 ;
b11000101 #
b11000101 0
b11000101 @
b11100 :
b1000 4
b10000 3
1&
#520
b11000101 *
b11000101 .
b11000101 =
0)
#522
0&
#525
b1 ;
b10101010 #
b10101010 0
b10101010 @
b10001 3
b11000 4
1&
#528
0&
#530
b1000 <
b1011 6
b11000 5
b11000 7
1)
#531
b10 ;
b11100101 #
b11100101 0
b11100101 @
b11001 4
b10010 3
1&
#534
0&
#537
b11 ;
b1110111 #
b1110111 0
b1110111 @
b10011 3
b11011 4
1&
#540
b1011100 *
b1011100 .
b1011100 =
0&
0)
#543
b100 ;
b10010 #
b10010 0
b10010 @
b11010 4
b10100 3
1&
#546
0&
#549
b101 ;
b10001111 #
b10001111 0
b10001111 @
b10101 3
b11110 4
1&
#550
b1001 <
b11001 7
b10100 8
b11000 6
b11110 5
1)
#552
0&
#555
b110 ;
b11110010 #
b11110010 0
b11110010 @
b10100 9
b11111 4
b10110 3
1&
#558
0&
#560
b10111101 *
b10111101 .
b10111101 =
0)
#561
b111 ;
b11001110 #
b11001110 0
b11001110 @
b10111 3
b11101 4
b10100 :
1&
#564
0&
#567
b1000 ;
b11000101 #
b11000101 0
b11000101 @
b11100 4
b11000 3
1&
#570
b1010 <
b11110 6
b11100 5
b10101 8
b11010 7
0&
1)
#573
0-
1"
b1001 ;
b1011100 #
b1011100 0
b1011100 @
b11001 3
b10100 4
b10101 9
1&
#576
0&
#579
b10101 :
b10101 4
1&
#580
b101101 *
b101101 .
b101101 =
0)
#582
0&
#585
1&
#588
0&
#590
b1011 <
b11011 7
b10111 8
b11100 6
b10101 5
1)
#591
b10111 9
1&
#594
0&
#597
1-
0"
b10111 :
1&
#600
b1100101 *
b1100101 .
b1100101 =
0&
0)
#603
b1010 ;
b10111101 #
b10111101 0
b10111101 @
b11010 3
1&
#606
0&
#609
0-
1"
b1011 ;
b101101 #
b101101 0
b101101 @
b11011 3
b10111 4
1&
#610
b1100 <
b10101 6
b10111 5
b10110 8
b11100 7
1)
#612
0&
#615
1-
0"
b10110 9
b10110 4
1&
#618
0&
#620
0/
0+
b1100011 *
b1100011 .
b1100011 =
0)
#621
0-
1"
b1100 ;
b1100101 #
b1100101 0
b1100101 @
b11100 3
b10110 :
1&
#624
0&
#627
1-
0"
b10010 4
1&
#630
b10010 8
b10111 6
b10010 5
0&
1)
#633
b1101 ;
b10001100 #
b10001100 0
b10001100 @
b11101 3
b10010 9
1&
#636
0&
#639
b1110 ;
b11111001 #
b11111001 0
b11111001 @
b10010 :
b10011 4
b11110 3
1&
#640
0)
#642
0&
#645
b1111 ;
b11000110 #
b11000110 0
b11000110 @
b11111 3
b10001 4
1&
#648
0&
#650
b10010 6
b10001 5
1)
#651
b0 ;
b11000101 #
b11000101 0
b11000101 @
b10000 4
b0 3
1&
#654
0&
#657
b1 ;
b10101010 #
b10101010 0
b10101010 @
b1 3
b0 4
1&
#660
0&
0)
#663
b10 ;
b11100101 #
b11100101 0
b11100101 @
b1 4
b10 3
1&
#666
0&
#669
b11 ;
b1110111 #
b1110111 0
b1110111 @
b11 3
b11 4
1&
#670
b10001 6
b11 5
1)
#672
0&
#675
b100 ;
b10010 #
b10010 0
b10010 @
b10 4
b100 3
1&
#678
0&
#680
0)
#681
b101 ;
b10001111 #
b10001111 0
b10001111 @
b101 3
b110 4
1&
#684
0&
#687
b110 ;
b11110010 #
b11110010 0
b11110010 @
b111 4
b110 3
1&
#690
b11 6
b111 5
0&
1)
#693
b111 ;
b11001110 #
b11001110 0
b11001110 @
b111 3
b101 4
1&
#696
0&
#699
b1000 ;
b11000101 #
b11000101 0
b11000101 @
b100 4
b1000 3
1&
#700
0)
#702
0&
#705
b1001 ;
b1011100 #
b1011100 0
b1011100 @
b1001 3
b1100 4
1&
#708
0&
#710
b111 6
b1100 5
1)
#711
b1010 ;
b10111101 #
b10111101 0
b10111101 @
b1101 4
b1010 3
1&
#714
0&
#717
b1011 ;
b101101 #
b101101 0
b101101 @
b1011 3
b1111 4
1&
#720
0&
0)
#723
b1100 ;
b1100101 #
b1100101 0
b1100101 @
b1110 4
b1100 3
1&
#726
0&
#729
b1101 ;
b10001100 #
b10001100 0
b10001100 @
b1101 3
b1010 4
1&
#730
b1100 6
b1010 5
1)
#732
0&
#735
b1110 ;
b11111001 #
b11111001 0
b11111001 @
b1011 4
b1110 3
1&
#738
0&
#740
0)
#741
b1111 ;
b11000110 #
b11000110 0
b11000110 @
b1111 3
b1001 4
1&
#744
0&
#747
b0 ;
b11000101 #
b11000101 0
b11000101 @
b1000 4
b10000 3
1&
#750
1!
b1010 6
b1000 5
0&
1)
#753
b1 ;
b10101010 #
b10101010 0
b10101010 @
b10001 3
b11000 4
1&
#756
0&
#759
b10 ;
b11100101 #
b11100101 0
b11100101 @
b11001 4
b10010 3
1&
#760
0)
#762
0&
#765
b11 ;
b1110111 #
b1110111 0
b1110111 @
b10011 3
b11011 4
1&
#768
0&
#770
0!
b1000 6
b11011 5
1)
#771
b100 ;
b10010 #
b10010 0
b10010 @
b11010 4
b10100 3
1&
#774
0&
#777
b101 ;
b10001111 #
b10001111 0
b10001111 @
b10101 3
b11110 4
1&
#780
0&
0)
#783
b110 ;
b11110010 #
b11110010 0
b11110010 @
b11111 4
b10110 3
1&
#786
0&
#789
b111 ;
b11001110 #
b11001110 0
b11001110 @
b10111 3
b11101 4
1&
#790
b11011 6
b11101 5
1)
#792
0&
#795
b1000 ;
b11000101 #
b11000101 0
b11000101 @
b11100 4
b11000 3
1&
#798
0&
#800
0)
#801
b1001 ;
b1011100 #
b1011100 0
b1011100 @
b11001 3
b10100 4
1&
#804
0&
#807
b1010 ;
b10111101 #
b10111101 0
b10111101 @
b10101 4
b11010 3
1&
#810
b11101 6
b10101 5
0&
1)
#813
b1011 ;
b101101 #
b101101 0
b101101 @
b11011 3
b10111 4
1&
#816
0&
#819
b1100 ;
b1100101 #
b1100101 0
b1100101 @
b10110 4
b11100 3
1&
#820
0)
#822
0&
#825
0-
1"
b1101 ;
b10001100 #
b10001100 0
b10001100 @
b11101 3
b10010 4
1&
#828
0&
#830
b10101 6
b10010 5
1)
#831
1-
0"
b10011 4
1&
#834
0&
#837
b1110 ;
b11111001 #
b11111001 0
b11111001 @
b11110 3
1&
#840
0&
0)
#843
b1111 ;
b11000110 #
b11000110 0
b11000110 @
b10001 4
b11111 3
1&
#846
0&
#849
b0 ;
b11000101 #
b11000101 0
b11000101 @
b0 3
b10000 4
1&
#850
b10010 6
b10000 5
1)
#852
0&
#855
b1 ;
b10101010 #
b10101010 0
b10101010 @
b0 4
b1 3
1&
#858
0&
#860
0)
#861
b10 ;
b11100101 #
b11100101 0
b11100101 @
b10 3
b1 4
1&
#864
0&
#867
b11 ;
b1110111 #
b1110111 0
b1110111 @
b11 4
b11 3
1&
#870
b10000 6
b11 5
0&
1)
#873
b100 ;
b10010 #
b10010 0
b10010 @
b100 3
b10 4
1&
#876
0&
#879
b101 ;
b10001111 #
b10001111 0
b10001111 @
b110 4
b101 3
1&
#880
0)
#882
0&
#885
b110 ;
b11110010 #
b11110010 0
b11110010 @
b110 3
b111 4
1&
#888
0&
#890
b11 6
b111 5
1)
#891
b111 ;
b11001110 #
b11001110 0
b11001110 @
b101 4
b111 3
1&
#894
0&
#897
b1000 ;
b11000101 #
b11000101 0
b11000101 @
b1000 3
b100 4
1&
#900
0&
0)
#903
b1001 ;
b1011100 #
b1011100 0
b1011100 @
b1100 4
b1001 3
1&
#906
0&
#909
b1010 ;
b10111101 #
b10111101 0
b10111101 @
b1010 3
b1101 4
1&
#910
b111 6
b1101 5
1)
#912
0&
#915
b1011 ;
b101101 #
b101101 0
b101101 @
b1111 4
b1011 3
1&
#918
0&
#920
0)
#921
b1100 ;
b1100101 #
b1100101 0
b1100101 @
b1100 3
b1110 4
1&
#924
0&
#927
b1101 ;
b10001100 #
b10001100 0
b10001100 @
b1010 4
b1101 3
1&
#930
b1101 6
b1010 5
0&
1)
#933
b1110 ;
b11111001 #
b11111001 0
b11111001 @
b1110 3
b1011 4
1&
#936
0&
#939
b1111 ;
b11000110 #
b11000110 0
b11000110 @
b1001 4
b1111 3
1&
#940
0)
#942
0&
#945
b0 ;
b11000101 #
b11000101 0
b11000101 @
b10000 3
b1000 4
1&
#948
0&
#950
1!
b1010 6
b1000 5
1)
#951
b1 ;
b10101010 #
b10101010 0
b10101010 @
b11000 4
b10001 3
1&
#954
0&
#957
b10 ;
b11100101 #
b11100101 0
b11100101 @
b10010 3
b11001 4
1&
#960
0&
0)
#963
b11 ;
b1110111 #
b1110111 0
b1110111 @
b11011 4
b10011 3
1&
#966
0&
#969
b100 ;
b10010 #
b10010 0
b10010 @
b10100 3
b11010 4
1&
#970
0!
b1000 6
b11010 5
1)
#972
0&
#975
b101 ;
b10001111 #
b10001111 0
b10001111 @
b11110 4
b10101 3
1&
#978
0&
#980
0)
#981
b110 ;
b11110010 #
b11110010 0
b11110010 @
b10110 3
b11111 4
1&
#984
0&
#987
b111 ;
b11001110 #
b11001110 0
b11001110 @
b11101 4
b10111 3
1&
#990
0!
b11010 6
b11101 5
0&
1)
#993
b1000 ;
b11000101 #
b11000101 0
b11000101 @
b11000 3
b11100 4
1&
#996
0&
#999
b1001 ;
b1011100 #
b1011100 0
b1011100 @
b10100 4
b11001 3
1&
#1000
0)
#1002
0&
#1005
b1010 ;
b10111101 #
b10111101 0
b10111101 @
b11010 3
b10101 4
1&
#1008
0&
#1010
b11101 6
b10101 5
1)
#1011
b1011 ;
b101101 #
b101101 0
b101101 @
b10111 4
b11011 3
1&
#1014
0&
#1017
b1100 ;
b1100101 #
b1100101 0
b1100101 @
b11100 3
b10110 4
1&
#1020
0&
0)
#1023
0-
1"
b1101 ;
b10001100 #
b10001100 0
b10001100 @
b10010 4
b11101 3
1&
#1026
0&
#1029
1-
0"
b10011 4
1&
#1030
b10101 6
b10011 5
1)
#1032
0&
#1035
b1110 ;
b11111001 #
b11111001 0
b11111001 @
b11110 3
1&
#1038
0&
#1040
0)
#1041
b1111 ;
b11000110 #
b11000110 0
b11000110 @
b11111 3
b10001 4
1&
#1044
0&
#1047
b0 ;
b11000101 #
b11000101 0
b11000101 @
b10000 4
b0 3
1&
#1050
b10011 6
b10000 5
0&
1)
#1053
b1 ;
b10101010 #
b10101010 0
b10101010 @
b1 3
b0 4
1&
#1056
0&
#1059
b10 ;
b11100101 #
b11100101 0
b11100101 @
b1 4
b10 3
1&
#1060
0)
#1062
0&
#1065
b11 ;
b1110111 #
b1110111 0
b1110111 @
b11 3
b11 4
1&
#1068
0&
#1070
b10000 6
b11 5
1)
#1071
b100 ;
b10010 #
b10010 0
b10010 @
b10 4
b100 3
1&
#1074
0&
#1077
b101 ;
b10001111 #
b10001111 0
b10001111 @
b101 3
b110 4
1&
#1080
0&
0)
#1083
b110 ;
b11110010 #
b11110010 0
b11110010 @
b111 4
b110 3
1&
#1086
0&
#1089
b111 ;
b11001110 #
b11001110 0
b11001110 @
b111 3
b101 4
1&
#1090
b11 6
b101 5
1)
#1092
0&
#1095
b1000 ;
b11000101 #
b11000101 0
b11000101 @
b100 4
b1000 3
1&
#1098
0&
#1100
0)
#1101
b1001 ;
b1011100 #
b1011100 0
b1011100 @
b1001 3
b1100 4
1&
#1104
0&
#1107
b1010 ;
b10111101 #
b10111101 0
b10111101 @
b1101 4
b1010 3
1&
#1110
b101 6
b1101 5
0&
1)
#1113
b1011 ;
b101101 #
b101101 0
b101101 @
b1011 3
b1111 4
1&
#1116
0&
#1119
b1100 ;
b1100101 #
b1100101 0
b1100101 @
b1110 4
b1100 3
1&
#1120
0)
#1122
0&
#1125
b1101 ;
b10001100 #
b10001100 0
b10001100 @
b1101 3
b1010 4
1&
#1128
0&
#1130
b1101 6
b1010 5
1)
#1131
b1110 ;
b11111001 #
b11111001 0
b11111001 @
b1011 4
b1110 3
1&
#1134
0&
#1137
b1111 ;
b11000110 #
b11000110 0
b11000110 @
b1111 3
b1001 4
1&
#1140
0&
0)
#1143
b0 ;
b11000101 #
b11000101 0
b11000101 @
b1000 4
b10000 3
1&
#1146
0&
#1149
b1 ;
b10101010 #
b10101010 0
b10101010 @
b10001 3
b11000 4
1&
#1150
1!
b1010 6
b11000 5
1)
#1152
0&
#1155
b10 ;
b11100101 #
b11100101 0
b11100101 @
b11001 4
b10010 3
1&
#1158
0&
#1160
0)
#1161
b11 ;
b1110111 #
b1110111 0
b1110111 @
b10011 3
b11011 4
1&
#1164
0&
#1167
b100 ;
b10010 #
b10010 0
b10010 @
b11010 4
b10100 3
1&
#1170
0!
b11000 6
b11010 5
0&
1)
#1173
b101 ;
b10001111 #
b10001111 0
b10001111 @
b10101 3
b11110 4
1&
#1176
0&
#1179
b110 ;
b11110010 #
b11110010 0
b11110010 @
b11111 4
b10110 3
1&
#1180
0)
#1182
0&
#1185
b111 ;
b11001110 #
b11001110 0
b11001110 @
b10111 3
b11101 4
1&
#1188
0&
#1190
b11010 6
b11101 5
1)
#1191
b1000 ;
b11000101 #
b11000101 0
b11000101 @
b11100 4
b11000 3
1&
#1194
0&
#1197
b1001 ;
b1011100 #
b1011100 0
b1011100 @
b11001 3
b10100 4
1&
#1200
0&
0)
#1203
b1010 ;
b10111101 #
b10111101 0
b10111101 @
b10101 4
b11010 3
1&
#1206
0&
#1209
b1011 ;
b101101 #
b101101 0
b101101 @
b11011 3
b10111 4
1&
#1210
b11101 6
b10111 5
1)
#1212
0&
#1215
b1100 ;
b1100101 #
b1100101 0
b1100101 @
b10110 4
b11100 3
1&
#1218
0&
#1220
0)
#1221
0-
1"
b1101 ;
b10001100 #
b10001100 0
b10001100 @
b11101 3
b10010 4
1&
#1224
0&
#1227
1-
0"
b10011 4
1&
#1230
b10111 6
b10011 5
0&
1)
#1233
b1110 ;
b11111001 #
b11111001 0
b11111001 @
b11110 3
1&
#1236
0&
#1239
b1111 ;
b11000110 #
b11000110 0
b11000110 @
b10001 4
b11111 3
1&
#1240
0)
#1242
0&
#1245
b0 ;
b11000101 #
b11000101 0
b11000101 @
b0 3
b10000 4
1&
#1248
0&
#1250
b10011 6
b10000 5
1)
#1251
b1 ;
b10101010 #
b10101010 0
b10101010 @
b0 4
b1 3
1&
#1254
0&
#1257
b10 ;
b11100101 #
b11100101 0
b11100101 @
b10 3
b1 4
1&
#1260
0&
0)
#1263
b11 ;
b1110111 #
b1110111 0
b1110111 @
b11 4
b11 3
1&
#1266
0&
#1269
b100 ;
b10010 #
b10010 0
b10010 @
b100 3
b10 4
1&
#1270
b10000 6
b10 5
1)
#1272
0&
#1275
b101 ;
b10001111 #
b10001111 0
b10001111 @
b110 4
b101 3
1&
#1278
0&
#1280
0)
#1281
b110 ;
b11110010 #
b11110010 0
b11110010 @
b110 3
b111 4
1&
#1284
0&
#1287
b111 ;
b11001110 #
b11001110 0
b11001110 @
b101 4
b111 3
1&
#1290
b10 6
b101 5
0&
1)
#1293
b1000 ;
b11000101 #
b11000101 0
b11000101 @
b1000 3
b100 4
1&
#1296
0&
#1299
b1001 ;
b1011100 #
b1011100 0
b1011100 @
b1100 4
b1001 3
1&
#1300
0)
#1302
0&
#1305
b1010 ;
b10111101 #
b10111101 0
b10111101 @
b1010 3
b1101 4
1&
#1308
0&
#1310
b101 6
b1101 5
1)
#1311
b1011 ;
b101101 #
b101101 0
b101101 @
b1111 4
b1011 3
1&
#1314
0&
#1317
b1100 ;
b1100101 #
b1100101 0
b1100101 @
b1100 3
b1110 4
1&
#1320
0&
0)
#1323
b1101 ;
b10001100 #
b10001100 0
b10001100 @
b1010 4
b1101 3
1&
#1326
0&
#1329
b1110 ;
b11111001 #
b11111001 0
b11111001 @
b1110 3
b1011 4
1&
#1330
b1101 6
b1011 5
1)
#1332
0&
#1335
b1111 ;
b11000110 #
b11000110 0
b11000110 @
b1001 4
b1111 3
1&
#1338
0&
#1340
0)
#1341
b0 ;
b11000101 #
b11000101 0
b11000101 @
b10000 3
b1000 4
1&
#1344
0&
#1347
b1 ;
b10101010 #
b10101010 0
b10101010 @
b11000 4
b10001 3
1&
#1350
b1011 6
b11000 5
0&
1)
#1353
b10 ;
b11100101 #
b11100101 0
b11100101 @
b10010 3
b11001 4
1&
#1356
0&
#1359
b11 ;
b1110111 #
b1110111 0
b1110111 @
b11011 4
b10011 3
1&
#1360
0)
#1362
0&
#1365
b100 ;
b10010 #
b10010 0
b10010 @
b10100 3
b11010 4
1&
#1368
0&
#1370
b11000 6
b11010 5
1)
#1371
b101 ;
b10001111 #
b10001111 0
b10001111 @
b11110 4
b10101 3
1&
#1374
0&
#1377
b110 ;
b11110010 #
b11110010 0
b11110010 @
b10110 3
b11111 4
1&
#1380
0&
0)
#1383
b111 ;
b11001110 #
b11001110 0
b11001110 @
b11101 4
b10111 3
1&
#1386
0&
#1389
b1000 ;
b11000101 #
b11000101 0
b11000101 @
b11000 3
b11100 4
1&
#1390
b11010 6
b11100 5
1)
#1392
0&
#1395
b1001 ;
b1011100 #
b1011100 0
b1011100 @
b10100 4
b11001 3
1&
#1398
0&
#1400
0)
#1401
b1010 ;
b10111101 #
b10111101 0
b10111101 @
b11010 3
b10101 4
1&
#1404
0&
#1407
b1011 ;
b101101 #
b101101 0
b101101 @
b10111 4
b11011 3
1&
#1410
b11100 6
b10111 5
0&
1)
#1413
b1100 ;
b1100101 #
b1100101 0
b1100101 @
b11100 3
b10110 4
1&
#1416
0&
#1419
0-
1"
b1101 ;
b10001100 #
b10001100 0
b10001100 @
b10010 4
b11101 3
1&
#1420
0)
#1422
0&
#1425
1-
0"
b10011 4
1&
#1428
0&
#1430
b10111 6
b10011 5
1)
#1431
b1110 ;
b11111001 #
b11111001 0
b11111001 @
b11110 3
1&
#1434
0&
#1437
b1111 ;
b11000110 #
b11000110 0
b11000110 @
b11111 3
b10001 4
1&
#1440
0&
0)
#1443
b0 ;
b11000101 #
b11000101 0
b11000101 @
b10000 4
b0 3
1&
#1446
0&
#1449
b1 ;
b10101010 #
b10101010 0
b10101010 @
b1 3
b0 4
1&
#1450
b10011 6
b0 5
1)
#1452
0&
#1455
b10 ;
b11100101 #
b11100101 0
b11100101 @
b1 4
b10 3
1&
#1458
0&
#1460
0)
#1461
b11 ;
b1110111 #
b1110111 0
b1110111 @
b11 3
b11 4
1&
#1464
0&
#1467
b100 ;
b10010 #
b10010 0
b10010 @
b10 4
b100 3
1&
#1470
b0 6
b10 5
0&
1)
#1473
b101 ;
b10001111 #
b10001111 0
b10001111 @
b101 3
b110 4
1&
#1476
0&
#1479
b110 ;
b11110010 #
b11110010 0
b11110010 @
b111 4
b110 3
1&
#1480
0)
#1482
0&
#1485
b111 ;
b11001110 #
b11001110 0
b11001110 @
b111 3
b101 4
1&
#1488
0&
#1490
b10 6
b101 5
1)
#1491
b1000 ;
b11000101 #
b11000101 0
b11000101 @
b100 4
b1000 3
1&
#1494
0&
