MCDF/slave_FIFO/slave_FIFO.vcd
$date
	Tue Dec  6 20:02:20 2022
$end
$version
	Icarus Verilog
$end
$timescale
	100ps
$end
$scope module slave_FIFO_tb $end
$var wire 1 ! slvx_val_o $end
$var wire 1 " slvx_req_o $end
$var wire 1 # slvx_end_o $end
$var wire 32 $ slvx_data_o [31:0] $end
$var wire 6 % margin_o [5:0] $end
$var wire 1 & chx_ready_o $end
$var reg 1 ' a2sx_ack_i $end
$var reg 32 ( chx_data_i [31:0] $end
$var reg 1 ) chx_valid_i $end
$var reg 1 * clk_i $end
$var reg 1 + rstn_i $end
$var reg 1 , slvx_en_i $end
$var reg 3 - slvx_pkglen_i [2:0] $end
$scope module slave1 $end
$var wire 1 ' a2sx_ack_i $end
$var wire 32 . chx_data_i [31:0] $end
$var wire 1 ) chx_valid_i $end
$var wire 1 * clk_i $end
$var wire 1 / rd_en $end
$var wire 1 0 rst_n $end
$var wire 1 + rstn_i $end
$var wire 1 , slvx_en_i $end
$var wire 3 1 slvx_pkglen_i [2:0] $end
$var wire 1 2 wr_en $end
$var wire 1 3 val_i $end
$var wire 1 " slvx_req_o $end
$var wire 32 4 slvx_data_o [31:0] $end
$var wire 6 5 pkglen [5:0] $end
$var wire 6 6 margin_o [5:0] $end
$var wire 1 & chx_ready_o $end
$var reg 1 # slvx_end_o $end
$var reg 1 ! slvx_val_o $end
$var integer 32 7 i [31:0] $end
$scope module FIFO1 $end
$var wire 1 * clk $end
$var wire 32 8 data_in [31:0] $end
$var wire 1 / rd_en $end
$var wire 1 0 rst_n $end
$var wire 1 2 wr_en $end
$var wire 6 9 wr_ptr_true [5:0] $end
$var wire 1 : wr_ptr_msb $end
$var wire 6 ; rd_ptr_true [5:0] $end
$var wire 1 < rd_ptr_msb $end
$var wire 1 = full $end
$var wire 1 > empty $end
$var wire 6 ? FIFO_margin_o [5:0] $end
$var reg 32 @ data_out [31:0] $end
$var reg 7 A rd_ptr [6:0] $end
$var reg 7 B wr_ptr [6:0] $end
$upscope $end
$upscope $end
$upscope $end
$enddefinitions $end
#0
$dumpvars
b0 B
b0 A
bx @
b111111 ?
1>
0=
0<
b0 ;
0:
b0 9
b10010000101010011010100100100 8
b0 7
b111111 6
b100 5
bx 4
03
12
b0 1
00
0/
b10010000101010011010100100100 .
b0 -
1,
0+
0*
1)
b10010000101010011010100100100 (
0'
1&
b111111 %
bx $
0#
0"
0!
$end
#100
1*
#200
0*
#250
10
1+
#300
0>
b1 9
b1 B
b11000000100010010101111010000001 (
b11000000100010010101111010000001 .
b11000000100010010101111010000001 8
1*
#400
0*
#500
b111110 %
b111110 6
b111110 ?
b10 9
b10 B
b10000100100001001101011000001001 (
b10000100100001001101011000001001 .
b10000100100001001101011000001001 8
1*
#600
0*
#700
b111101 %
b111101 6
b111101 ?
b11 9
02
b11 B
b10110001111100000101011001100011 (
b10110001111100000101011001100011 .
b10110001111100000101011001100011 8
0)
1*
#800
0*
#900
12
b110101110010111101100001101 (
b110101110010111101100001101 .
b110101110010111101100001101 8
1)
1*
#1000
0*
#1100
1"
b111100 %
b111100 6
b111100 ?
b100 9
b100 B
b1000110110111111001100110001101 (
b1000110110111111001100110001101 .
b1000110110111111001100110001101 8
1*
#1200
0*
#1300
b111011 %
b111011 6
b111011 ?
b101 9
b101 B
b10110010110000101000010001100101 (
b10110010110000101000010001100101 .
b10110010110000101000010001100101 8
1*
#1400
0*
#1500
b111010 %
b111010 6
b111010 ?
b110 9
b110 B
b10001001001101110101001000010010 (
b10001001001101110101001000010010 .
b10001001001101110101001000010010 8
1*
#1600
0*
#1700
b111001 %
b111001 6
b111001 ?
b111 9
b111 B
b111100111110001100000001 (
b111100111110001100000001 .
b111100111110001100000001 8
1*
#1800
0*
#1900
b111000 %
b111000 6
b111000 ?
b1000 9
1/
b1000 B
1'
1*
#2000
0*
#2100
13
b1001 9
b1 ;
02
1/
1!
b1 7
b1001 B
b1 A
b10010000101010011010100100100 $
b10010000101010011010100100100 4
b10010000101010011010100100100 @
0)
0'
1*
#2200
0*
#2300
b111001 %
b111001 6
b111001 ?
b10 ;
b10 A
b11000000100010010101111010000001 $
b11000000100010010101111010000001 4
b11000000100010010101111010000001 @
b10 7
1*
#2400
0*
#2500
b111010 %
b111010 6
b111010 ?
b11 ;
b11 7
b11 A
b10000100100001001101011000001001 $
b10000100100001001101011000001001 4
b10000100100001001101011000001001 @
1*
#2600
0*
#2700
0/
b111011 %
b111011 6
b111011 ?
03
b100 ;
b100 A
b110101110010111101100001101 $
b110101110010111101100001101 4
b110101110010111101100001101 @
b0 7
1#
1*
#2800
0*
#2900
0#
0!
1*
#3000
0*
#3100
1/
1'
1*
#3200
0*
#3300
13
b111100 %
b111100 6
b111100 ?
b101 ;
1/
1!
b1 7
b101 A
b1000110110111111001100110001101 $
b1000110110111111001100110001101 4
b1000110110111111001100110001101 @
0'
1*
#3400
0*
#3500
0"
b111101 %
b111101 6
b111101 ?
b110 ;
b110 A
b10110010110000101000010001100101 $
b10110010110000101000010001100101 4
b10110010110000101000010001100101 @
b10 7
1*
#3600
0*
#3700
b111110 %
b111110 6
b111110 ?
b111 ;
b11 7
b111 A
b10001001001101110101001000010010 $
b10001001001101110101001000010010 4
b10001001001101110101001000010010 @
1*
#3800
0*
#3900
0/
b111111 %
b111111 6
b111111 ?
03
b1000 ;
b1000 A
b111100111110001100000001 $
b111100111110001100000001 4
b111100111110001100000001 @
b0 7
1#
1*
#4000
0*
#4100
0#
0!
1*
#4200
0*
#4300
1*
#4400
0*
#4500
1*
#4600
0*
#4700
1*
#4800
0*
#4900
1*
#5000
0*
#5100
1*
#5200
0*
#5300
12
b110110101111100110100001101 (
b110110101111100110100001101 .
b110110101111100110100001101 8
1)
1*
#5400
0*
#5500
b111110 %
b111110 6
b111110 ?
b1010 9
b1010 B
b111011001000111111000101110110 (
b111011001000111111000101110110 .
b111011001000111111000101110110 8
1*
#5600
0*
#5700
b111101 %
b111101 6
b111101 ?
b1011 9
b1011 B
b11110100011011100110100111101 (
b11110100011011100110100111101 .
b11110100011011100110100111101 8
1*
#5800
0*
#5900
1"
b111100 %
b111100 6
b111100 ?
b1100 9
b1100 B
b1110110110101000101011111101101 (
b1110110110101000101011111101101 .
b1110110110101000101011111101101 8
1*
#6000
0*
#6100
b111011 %
b111011 6
b111011 ?
b1101 9
b1101 B
b1000110001011011111011110001100 (
b1000110001011011111011110001100 .
b1000110001011011111011110001100 8
1*
#6200
0*
#6300
b111010 %
b111010 6
b111010 ?
b1110 9
b1110 B
b1111100111111011110100111111001 (
b1111100111111011110100111111001 .
b1111100111111011110100111111001 8
1*
#6400
0*
#6500
b111001 %
b111001 6
b111001 ?
b1111 9
b1111 B
b11100011001101110010010011000110 (
b11100011001101110010010011000110 .
b11100011001101110010010011000110 8
1*
#6600
0*
#6700
b111000 %
b111000 6
b111000 ?
b10000 9
b10000 B
b11100010111101111000010011000101 (
b11100010111101111000010011000101 .
b11100010111101111000010011000101 8
1*
#6800
0*
#6900
b110111 %
b110111 6
b110111 ?
b10001 9
b10001 B
b11010101000100111101001010101010 (
b11010101000100111101001010101010 .
b11010101000100111101001010101010 8
1*
#7000
0*
#7100
b110110 %
b110110 6
b110110 ?
b10010 9
b10010 B
b1110010101011111111011111100101 (
b1110010101011111111011111100101 .
b1110010101011111111011111100101 8
1*
#7200
0*
#7300
b110101 %
b110101 6
b110101 ?
b10011 9
b10011 B
b10111011110100100111001001110111 (
b10111011110100100111001001110111 .
b10111011110100100111001001110111 8
1*
#7400
0*
#7500
b110100 %
b110100 6
b110100 ?
b10100 9
b10100 B
b10001001001100101101011000010010 (
b10001001001100101101011000010010 .
b10001001001100101101011000010010 8
1*
#7600
0*
#7700
b110011 %
b110011 6
b110011 ?
b10101 9
b10101 B
b1000111111011001101101110001111 (
b1000111111011001101101110001111 .
b1000111111011001101101110001111 8
1*
#7800
0*
#7900
b110010 %
b110010 6
b110010 ?
b10110 9
b10110 B
b1111001001100000110100111110010 (
b1111001001100000110100111110010 .
b1111001001100000110100111110010 8
1*
#8000
0*
#8100
b110001 %
b110001 6
b110001 ?
b10111 9
b10111 B
b11100111011101101001011011001110 (
b11100111011101101001011011001110 .
b11100111011101101001011011001110 8
1*
#8200
0*
#8300
b110000 %
b110000 6
b110000 ?
b11000 9
b11000 B
b11110100000000000111101011101000 (
b11110100000000000111101011101000 .
b11110100000000000111101011101000 8
1*
#8400
0*
#8500
b101111 %
b101111 6
b101111 ?
b11001 9
b11001 B
b11100010110010100100111011000101 (
b11100010110010100100111011000101 .
b11100010110010100100111011000101 8
1*
#8600
0*
#8700
b101110 %
b101110 6
b101110 ?
b11010 9
b11010 B
b101110010110000100100101011100 (
b101110010110000100100101011100 .
b101110010110000100100101011100 8
1*
#8800
0*
#8900
b101101 %
b101101 6
b101101 ?
b11011 9
b11011 B
b11011110100011100010100010111101 (
b11011110100011100010100010111101 .
b11011110100011100010100010111101 8
1*
#9000
0*
#9100
b101100 %
b101100 6
b101100 ?
b11100 9
b11100 B
b10010110101010110101100000101101 (
b10010110101010110101100000101101 .
b10010110101010110101100000101101 8
1*
#9200
0*
#9300
b101011 %
b101011 6
b101011 ?
b11101 9
b11101 B
b10110010101001110010011001100101 (
b10110010101001110010011001100101 .
b10110010101001110010011001100101 8
1*
#9400
0*
#9500
b101010 %
b101010 6
b101010 ?
b11110 9
b11110 B
b10110001111011110110001001100011 (
b10110001111011110110001001100011 .
b10110001111011110110001001100011 8
1*
#9600
0*
#9700
b101001 %
b101001 6
b101001 ?
b11111 9
b11111 B
b101011100111000011100001010 (
b101011100111000011100001010 .
b101011100111000011100001010 8
1*
#9800
0*
#9900
b101000 %
b101000 6
b101000 ?
b100000 9
b100000 B
b11000000001110110010001010000000 (
b11000000001110110010001010000000 .
b11000000001110110010001010000000 8
1*
#10000
0*
#10100
b100111 %
b100111 6
b100111 ?
b100001 9
b100001 B
b10000011001000010000100100000 (
b10000011001000010000100100000 .
b10000011001000010000100100000 8
1*
#10200
0*
#10300
b100110 %
b100110 6
b100110 ?
b100010 9
b100010 B
b1010101011110000100010110101010 (
b1010101011110000100010110101010 .
b1010101011110000100010110101010 8
1*
#10400
0*
#10500
b100101 %
b100101 6
b100101 ?
b100011 9
b100011 B
b11001110110011001100110010011101 (
b11001110110011001100110010011101 .
b11001110110011001100110010011101 8
1*
#10600
0*
#10700
b100100 %
b100100 6
b100100 ?
b100100 9
b100100 B
b11001011001000000011111010010110 (
b11001011001000000011111010010110 .
b11001011001000000011111010010110 8
1*
#10800
0*
#10900
b100011 %
b100011 6
b100011 ?
b100101 9
b100101 B
b10001001100000111011100000010011 (
b10001001100000111011100000010011 .
b10001001100000111011100000010011 8
1*
#11000
0*
#11100
b100010 %
b100010 6
b100010 ?
b100110 9
b100110 B
b10000110101111000011100000001101 (
b10000110101111000011100000001101 .
b10000110101111000011100000001101 8
1*
#11200
0*
#11300
b100001 %
b100001 6
b100001 ?
b100111 9
b100111 B
b10101001101001111101011001010011 (
b10101001101001111101011001010011 .
b10101001101001111101011001010011 8
1*
#11400
0*
#11500
b100000 %
b100000 6
b100000 ?
b101000 9
b101000 B
b110101100111111101110101101011 (
b110101100111111101110101101011 .
b110101100111111101110101101011 8
1*
#11600
0*
#11700
02
0&
b11111 %
b11111 6
b11111 ?
b101001 9
b101001 B
b11101010101001100010101011010101 (
b11101010101001100010101011010101 .
b11101010101001100010101011010101 8
1*
#11800
0*
#11900
b10000001000101110100101000000010 (
b10000001000101110100101000000010 .
b10000001000101110100101000000010 8
1*
#12000
0*
#12100
b11010111010101100011111010101110 (
b11010111010101100011111010101110 .
b11010111010101100011111010101110 8
1*
#12200
0*
#12300
b1110111111111110100100011101 (
b1110111111111110100100011101 .
b1110111111111110100100011101 8
1*
#12400
0*
#12500
b11100111110001010111001011001111 (
b11100111110001010111001011001111 .
b11100111110001010111001011001111 8
1*
#12600
0*
#12700
b10001100001000100100100100011 (
b10001100001000100100100100011 .
b10001100001000100100100100011 8
1*
#12800
0*
#12900
b101000010010110010100001010 (
b101000010010110010100001010 .
b101000010010110010100001010 8
1*
#13000
0*
#13100
b11100101011100110000101011001010 (
b11100101011100110000101011001010 .
b11100101011100110000101011001010 8
1*
