MCDF/slave_FIFO/SCFIFO2/SCFIFO2.vcd
$date
	Sat Dec  3 15:54:10 2022
$end
$version
	Icarus Verilog
$end
$timescale
	100ps
$end
$scope module SCFIFO2_tb $end
$var wire 1 ! full $end
$var wire 1 " empty $end
$var wire 32 # data_out [31:0] $end
$var wire 6 $ FIFO_margin_o [5:0] $end
$var reg 1 % clk $end
$var reg 32 & data_in [31:0] $end
$var reg 1 ' rd_en $end
$var reg 1 ( rst_n $end
$var reg 1 ) wr_en $end
$scope module SCFIFO2_inst $end
$var wire 1 % clk $end
$var wire 32 * data_in [31:0] $end
$var wire 1 ' rd_en $end
$var wire 1 ( rst_n $end
$var wire 1 ) wr_en $end
$var wire 6 + wr_ptr_true [5:0] $end
$var wire 1 , wr_ptr_msb $end
$var wire 6 - rd_ptr_true [5:0] $end
$var wire 1 . rd_ptr_msb $end
$var wire 1 ! full $end
$var wire 1 " empty $end
$var wire 6 / FIFO_margin_o [5:0] $end
$var reg 32 0 data_out [31:0] $end
$var reg 7 1 rd_ptr [6:0] $end
$var reg 7 2 wr_ptr [6:0] $end
$upscope $end
$upscope $end
$enddefinitions $end
#0
$dumpvars
b0 2
b0 1
bx 0
b111111 /
0.
b0 -
0,
b0 +
b0 *
0)
0(
0'
b0 &
0%
b111111 $
bx #
1"
0!
$end
#100
1%
#200
b10010000101010011010100100100 &
b10010000101010011010100100100 *
1)
1(
0%
#300
0"
b1 +
b1 2
1%
#400
b11000000100010010101111010000001 &
b11000000100010010101111010000001 *
0%
#500
b111110 $
b111110 /
b10 +
b10 2
1%
#600
b10000100100001001101011000001001 &
b10000100100001001101011000001001 *
0%
#700
b111101 $
b111101 /
b11 +
b11 2
1%
#800
b10110001111100000101011001100011 &
b10110001111100000101011001100011 *
0%
#900
b111100 $
b111100 /
b100 +
b100 2
1%
#1000
b110101110010111101100001101 &
b110101110010111101100001101 *
0%
#1100
b111011 $
b111011 /
b101 +
b101 2
1%
#1200
b1000110110111111001100110001101 &
b1000110110111111001100110001101 *
0%
#1300
b111010 $
b111010 /
b110 +
b110 2
1%
#1400
b10110010110000101000010001100101 &
b10110010110000101000010001100101 *
0%
#1500
b111001 $
b111001 /
b111 +
b111 2
1%
#1600
b10001001001101110101001000010010 &
b10001001001101110101001000010010 *
0%
#1700
b111000 $
b111000 /
b1000 +
b1000 2
1%
#1800
b111100111110001100000001 &
b111100111110001100000001 *
0%
#1900
b110111 $
b110111 /
b1001 +
b1001 2
1%
#2000
b110110101111100110100001101 &
b110110101111100110100001101 *
0%
#2100
b110110 $
b110110 /
b1010 +
b1010 2
1%
#2200
1'
0)
0%
#2300
b110111 $
b110111 /
b1 -
b1 1
b10010000101010011010100100100 #
b10010000101010011010100100100 0
1%
#2400
0%
#2500
b111000 $
b111000 /
b10 -
b10 1
b11000000100010010101111010000001 #
b11000000100010010101111010000001 0
1%
#2600
0%
#2700
b111001 $
b111001 /
b11 -
b11 1
b10000100100001001101011000001001 #
b10000100100001001101011000001001 0
1%
#2800
0%
#2900
b111010 $
b111010 /
b100 -
b100 1
b10110001111100000101011001100011 #
b10110001111100000101011001100011 0
1%
#3000
0%
#3100
b111011 $
b111011 /
b101 -
b101 1
b110101110010111101100001101 #
b110101110010111101100001101 0
1%
#3200
0%
#3300
b111100 $
b111100 /
b110 -
b110 1
b1000110110111111001100110001101 #
b1000110110111111001100110001101 0
1%
#3400
0%
#3500
b111101 $
b111101 /
b111 -
b111 1
b10110010110000101000010001100101 #
b10110010110000101000010001100101 0
1%
#3600
0%
#3700
b111110 $
b111110 /
b1000 -
b1000 1
b10001001001101110101001000010010 #
b10001001001101110101001000010010 0
1%
#3800
0%
#3900
b111111 $
b111111 /
b1001 -
b1001 1
b111100111110001100000001 #
b111100111110001100000001 0
1%
#4000
0%
#4100
b111111 $
b111111 /
1"
b1010 -
b1010 1
b110110101111100110100001101 #
b110110101111100110100001101 0
1%
#4200
0'
b111011001000111111000101110110 &
b111011001000111111000101110110 *
1)
0%
#4300
0"
b1011 +
b1011 2
1%
#4400
b11110100011011100110100111101 &
b11110100011011100110100111101 *
0%
#4500
b111110 $
b111110 /
b1100 +
b1100 2
1%
#4600
b1110110110101000101011111101101 &
b1110110110101000101011111101101 *
0%
#4700
b111101 $
b111101 /
b1101 +
b1101 2
1%
#4800
b1000110001011011111011110001100 &
b1000110001011011111011110001100 *
0%
#4900
b111100 $
b111100 /
b1110 +
b1110 2
1%
#5000
0%
#5100
b111011 $
b111011 /
b1111 +
b1111 2
1%
#5200
0%
#5300
b111010 $
b111010 /
b10000 +
b10000 2
1%
#5400
0%
#5500
b111001 $
b111001 /
b10001 +
b10001 2
1%
#5600
0%
#5700
b111000 $
b111000 /
b10010 +
b10010 2
1%
#5800
0%
#5900
b110111 $
b110111 /
b10011 +
b10011 2
1%
#6000
0%
#6100
b110110 $
b110110 /
b10100 +
b10100 2
1%
#6200
0%
#6300
b110101 $
b110101 /
b10101 +
b10101 2
1%
#6400
0%
#6500
b110100 $
b110100 /
b10110 +
b10110 2
1%
#6600
0%
#6700
b110011 $
b110011 /
b10111 +
b10111 2
1%
#6800
0%
#6900
b110010 $
b110010 /
b11000 +
b11000 2
1%
#7000
0%
#7100
b110001 $
b110001 /
b11001 +
b11001 2
1%
#7200
0%
#7300
b110000 $
b110000 /
b11010 +
b11010 2
1%
#7400
0%
#7500
b101111 $
b101111 /
b11011 +
b11011 2
1%
#7600
0%
#7700
b101110 $
b101110 /
b11100 +
b11100 2
1%
#7800
0%
#7900
b101101 $
b101101 /
b11101 +
b11101 2
1%
#8000
0%
#8100
b101100 $
b101100 /
b11110 +
b11110 2
1%
#8200
0%
#8300
b101011 $
b101011 /
b11111 +
b11111 2
1%
#8400
0%
#8500
b101010 $
b101010 /
b100000 +
b100000 2
1%
#8600
0%
#8700
b101001 $
b101001 /
b100001 +
b100001 2
1%
#8800
0%
#8900
b101000 $
b101000 /
b100010 +
b100010 2
1%
#9000
0%
#9100
b100111 $
b100111 /
b100011 +
b100011 2
1%
#9200
0%
#9300
b100110 $
b100110 /
b100100 +
b100100 2
1%
#9400
0%
#9500
b100101 $
b100101 /
b100101 +
b100101 2
1%
#9600
0%
#9700
b100100 $
b100100 /
b100110 +
b100110 2
1%
#9800
0%
#9900
b100011 $
b100011 /
b100111 +
b100111 2
1%
#10000
0%
#10100
b100010 $
b100010 /
b101000 +
b101000 2
1%
#10200
0%
#10300
b100001 $
b100001 /
b101001 +
b101001 2
1%
#10400
0%
#10500
b100000 $
b100000 /
b101010 +
b101010 2
1%
#10600
0%
#10700
b11111 $
b11111 /
b101011 +
b101011 2
1%
#10800
0%
#10900
b11110 $
b11110 /
b101100 +
b101100 2
1%
#11000
0%
#11100
b11101 $
b11101 /
b101101 +
b101101 2
1%
#11200
0%
#11300
b11100 $
b11100 /
b101110 +
b101110 2
1%
#11400
0%
#11500
b11011 $
b11011 /
b101111 +
b101111 2
1%
#11600
0%
#11700
b11010 $
b11010 /
b110000 +
b110000 2
1%
#11800
0%
#11900
b11001 $
b11001 /
b110001 +
b110001 2
1%
#12000
0%
#12100
b11000 $
b11000 /
b110010 +
b110010 2
1%
#12200
0%
#12300
b10111 $
b10111 /
b110011 +
b110011 2
1%
#12400
0%
#12500
b10110 $
b10110 /
b110100 +
b110100 2
1%
#12600
0%
#12700
b10101 $
b10101 /
b110101 +
b110101 2
1%
#12800
0%
#12900
b10100 $
b10100 /
b110110 +
b110110 2
1%
#13000
0%
#13100
b10011 $
b10011 /
b110111 +
b110111 2
1%
#13200
0%
#13300
b10010 $
b10010 /
b111000 +
b111000 2
1%
#13400
0%
#13500
b10001 $
b10001 /
b111001 +
b111001 2
1%
#13600
0%
#13700
b10000 $
b10000 /
b111010 +
b111010 2
1%
#13800
0%
#13900
b1111 $
b1111 /
b111011 +
b111011 2
1%
#14000
0%
#14100
b1110 $
b1110 /
b111100 +
b111100 2
1%
#14200
0%
#14300
b1101 $
b1101 /
b111101 +
b111101 2
1%
#14400
0%
#14500
b1100 $
b1100 /
b111110 +
b111110 2
1%
#14600
0%
#14700
b1011 $
b1011 /
b111111 +
b111111 2
1%
